350,599
3BLMedia,2979
adamelman,115
adamwerbach,25
ADHumlen,45
AidaGreenbury,277
AlexParkinsonNY,11
algore,27
alicekorngold,572
AmanSinghCSR,113
AmyFranko,73
AndreaLearned,360
AndrewWinston,109
AndyCWales,34
annalappe,135
AprilHCrow,11
aroncramer,60
ASBCouncil,117
asheen,132
BarbOBrown,27
bbaue,8
BeaperezBea,28
BeauEngman,3
BICEPnews,105
billmckibben,369
bluNiall,144
braveoneagency,29
bruno68,362
BSRnews,212
BWCSRNews,11
caelusconsult,205
CamilleBeGreen,28
CDP,283
CDP_PaulS,5
CECPtweets,62
CeresNews,250
CFigueres,72
changemakers,315
ChristineArena,27
christinebader,116
cisl_cambridge,108
claychristensen,2
CleanTrillion,285
ClimateDesk,137
climateprogress,500
ClimateReality,1148
ConservationOrg,648
CorpReg,5
CSE_network,136
CSRbloggers,897
CSREuropeOrg,18
CSRHUB,3
CSRint,50
csrnews,25
CSRwire,1141
CynthiaCurtis,6
DarrenBeck,20
DaveStangis,168
davidcoethica,206
davidjoneshavas,865
Davos,1256
derekmarkham,274
DoughtyCentre,13
DoughtyDavidG,279
DougYPark,184
drvox,1390
E_Liedel,8
earth2017,154
ecolibris,80
elainecohen,84
EnvDefenseFund,251
eRevalue,111
essentialsln,12
Ethical_Corp,416
EthicalSource,48
evanharvey99,76
fairsnape,451
FAIRTRADE,162
FairTradeUSA,615
FastCoExist,978
fiercefern,70
FirstPeoples,180
Forum4theFuture,120
GCF_News,20
GE_PowerWater,51
GEHealthcare,397
GErenewables,18
gfriend,245
GlblCtzn,1403
globalcompact,84
GlobalGiving,479
GreenBiz,164
greenbiztweets,208
Greenpeace,821
greenpeaceusa,817
GreenRacker,2
greenwombat,59
GRI_Secretariat,28
guardianeco,683
GuardianSustBiz,779
HelleBankJorgen,68
hjones_nike,109
HuffPostGreen,676
IKEAUSANews,130
INCRnews,399
Infrangilis_ltd,33
Interface_NA,55
Interface_UK,214
IPCC_CH,1
ItsBBMG,7
jacquelynottman,41
jayhesl,4
JaymiHeimbuch,141
jeremyheimans,64
JimHarris,209
joconfino,28
JohnFriedman,147
JuanVillamayor,39
Justmeans,2359
jyotib,37
KaraHurst,5
KarenLockridge,122
kate_sheppard,128
kateheiny,6
KClarkeWhistler,91
KimMarotta,11
KPMG_US,332
kpmguk,108
kuminaidoo,20
lauraclise,168
laurenwylie,6
LeonKaye,236
Lisa_E_French,15
lloydalter,140
M_A_Wallace,38
makower,284
MarcGunther,243
marcstoiber,404
MarcyMurninghan,253
michaelmeehan,24
Microsoft_Green,30
MikeKapalko,2
Mitch_Jackson,84
MorganMM,34
MotherNatureNet,536
MPB_WBCSD,33
n_kelley,11
natcapsolutions,20
NatUrbanLeague,135
nature_org,190
NBSnet,96
neilchawkins,396
Nestle,41
nestlecsv,14
NewClimateEcon,243
nikebetterworld,5
NRDC,610
OECD_ENV,84
OLIVERBALCH,42
patagonia,184
pauldruckman,24
PavanSukhdev,52
PeggyatKC,411
PeterGGraf,13
RajThamotheram,13
RAN,284
ReachScale,924
RealizedWorth,19
Reportingclimat,838
RepRisk,6
RI_News_Alert,22
RnfrstAlliance,723
RobecoSAM,9
RockyMtnInst,239
RosabethKanter,57
SandyFrucher,9
sapcsr,226
SASB,105
sfallender,19
ShannonSchuyler,97
sierraclub,1550
simonmainwaring,180
suekatus,51
susanmcp1,705
sustainableSAP,100
Sustainalytics,64
SustainBrands,2251
SustMeme,305
TaigaCompany,1299
thecarbontrust,83
TheCROA,40
theiirc,16
TimJMohin,80
TJDiCaprio,3
TreeBanker,82
TreeHugger,317
triplepundit,2928
TrisaDellCRO,22
tveitdal,334
UCSUSA,177
UN_CarbonMechs,59
UN_Spokesperson,377
unctadwif,43
UNEP,220
UNFCCC,204
Unilever,59
USCCFBiz4Good,107
verdantflaneur,10
volansjohn,144
WalmartAction,13
WalmartGiving,7
WalmartGreen,2
WalmartHub,88
WayneVisser,288
wbcsd,200
wef,1225
WestpacSustain,19
Women_Rio20,605
World_Wildlife,115
WorldResources,282
WRIClimate,448
yesmagazine,82
