350,599,314
3BLMedia,2979,1259
adamelman,115,21
adamwerbach,25,11
ADHumlen,45,43
AidaGreenbury,277,82
AlexParkinsonNY,11,10
algore,27,15
alicekorngold,572,332
AmanSinghCSR,113,91
AmyFranko,73,52
AndreaLearned,360,229
AndrewWinston,109,18
AndyCWales,34,14
annalappe,135,48
AprilHCrow,11,10
aroncramer,60,31
ASBCouncil,117,116
asheen,132,41
BarbOBrown,27,17
bbaue,8,5
BeaperezBea,28,17
BeauEngman,3,2
BICEPnews,105,95
billmckibben,369,77
bluNiall,144,79
braveoneagency,29,20
bruno68,362,204
BSRnews,212,121
BWCSRNews,11,4
caelusconsult,205,139
CamilleBeGreen,28,9
CDP,283,212
CDP_PaulS,5,3
CECPtweets,62,58
CeresNews,250,205
CFigueres,72,53
changemakers,315,290
ChristineArena,27,4
christinebader,116,56
cisl_cambridge,108,82
claychristensen,2,0
CleanTrillion,285,171
ClimateDesk,137,10
climateprogress,500,17
ClimateReality,1148,821
ConservationOrg,648,534
CorpReg,5,0
CSE_network,136,131
CSRbloggers,897,609
CSREuropeOrg,18,10
CSRHUB,3,2
CSRint,50,13
csrnews,25,1
CSRwire,1141,1079
CynthiaCurtis,6,5
DarrenBeck,20,9
DaveStangis,168,119
davidcoethica,206,153
davidjoneshavas,865,45
Davos,1256,310
derekmarkham,274,62
DoughtyCentre,13,6
DoughtyDavidG,279,98
DougYPark,184,106
drvox,1390,45
E_Liedel,8,0
earth2017,154,105
ecolibris,80,51
elainecohen,84,53
EnvDefenseFund,251,120
eRevalue,111,89
essentialsln,12,12
Ethical_Corp,416,395
EthicalSource,48,7
evanharvey99,76,48
fairsnape,451,247
FAIRTRADE,162,134
FairTradeUSA,615,598
FastCoExist,978,34
fiercefern,70,25
FirstPeoples,180,161
Forum4theFuture,120,88
GCF_News,20,19
GE_PowerWater,51,34
GEHealthcare,397,279
GErenewables,18,14
gfriend,245,85
GlblCtzn,1403,1070
globalcompact,84,75
GlobalGiving,479,213
GreenBiz,164,150
greenbiztweets,208,12
Greenpeace,821,467
greenpeaceusa,817,453
GreenRacker,2,0
greenwombat,59,3
GRI_Secretariat,28,24
guardianeco,683,81
GuardianSustBiz,779,274
HelleBankJorgen,68,52
hjones_nike,109,63
HuffPostGreen,676,27
IKEAUSANews,130,78
INCRnews,399,295
Infrangilis_ltd,33,19
Interface_NA,55,37
Interface_UK,214,165
IPCC_CH,1,1
ItsBBMG,7,6
jacquelynottman,41,30
jayhesl,4,4
JaymiHeimbuch,141,48
jeremyheimans,64,51
JimHarris,209,202
joconfino,28,19
JohnFriedman,147,63
JuanVillamayor,39,30
Justmeans,2359,1647
jyotib,37,23
KaraHurst,5,2
KarenLockridge,122,74
kate_sheppard,128,11
kateheiny,6,3
KClarkeWhistler,91,72
KimMarotta,11,5
KPMG_US,332,270
kpmguk,108,85
kuminaidoo,20,9
lauraclise,168,122
laurenwylie,6,6
LeonKaye,236,151
Lisa_E_French,15,10
lloydalter,140,4
M_A_Wallace,38,35
makower,284,69
MarcGunther,243,107
marcstoiber,404,61
MarcyMurninghan,253,137
michaelmeehan,24,15
Microsoft_Green,30,18
MikeKapalko,2,0
Mitch_Jackson,84,66
MorganMM,34,32
MotherNatureNet,536,133
MPB_WBCSD,33,23
n_kelley,11,7
natcapsolutions,20,13
NatUrbanLeague,135,95
nature_org,190,152
NBSnet,96,60
neilchawkins,396,275
Nestle,41,9
nestlecsv,14,4
NewClimateEcon,243,182
nikebetterworld,5,3
NRDC,610,421
OECD_ENV,84,72
OLIVERBALCH,42,10
patagonia,184,84
pauldruckman,24,12
PavanSukhdev,52,24
PeggyatKC,411,323
PeterGGraf,13,10
RajThamotheram,13,8
RAN,284,205
ReachScale,924,693
RealizedWorth,19,2
Reportingclimat,838,93
RepRisk,6,5
RI_News_Alert,22,18
RnfrstAlliance,723,582
RobecoSAM,9,8
RockyMtnInst,239,46
RosabethKanter,57,27
SandyFrucher,9,0
sapcsr,226,199
SASB,105,90
sfallender,19,16
ShannonSchuyler,97,77
sierraclub,1550,817
simonmainwaring,180,78
suekatus,51,42
susanmcp1,705,364
sustainableSAP,100,83
Sustainalytics,64,51
SustainBrands,2251,1392
SustMeme,305,135
TaigaCompany,1299,236
thecarbontrust,83,34
TheCROA,40,33
theiirc,16,11
TimJMohin,80,73
TJDiCaprio,3,0
TreeBanker,82,54
TreeHugger,317,16
triplepundit,2928,2394
TrisaDellCRO,22,9
tveitdal,334,48
UCSUSA,177,114
UN_CarbonMechs,59,41
UN_Spokesperson,377,341
unctadwif,43,33
UNEP,220,186
UNFCCC,204,154
Unilever,59,37
USCCFBiz4Good,107,93
verdantflaneur,10,6
volansjohn,144,84
WalmartAction,13,7
WalmartGiving,7,1
WalmartGreen,2,1
WalmartHub,88,63
WayneVisser,288,232
wbcsd,200,175
wef,1225,1176
WestpacSustain,19,17
Women_Rio20,605,532
World_Wildlife,115,94
WorldResources,282,129
WRIClimate,448,379
yesmagazine,82,60
