Sus_Focused_Profiles,Twitter_IDs
@350,14266598
@3BLMedia,23484042
@adamelman,41174253
@adamwerbach,18929090
@ADHumlen,45879513
@aidagreenbury,90403900
@AlexParkinsonNY,2209507579
@algore,17220934
@alicekorngold,46903629
@AmanSinghCSR,95930466
@AmyFranko,18509444
@AndreaLearned,14676835
@AndrewWinston,33955377
@AndyCWales,108062719
@annalappe,105334381
@AprilHCrow,627659646
@aroncramer,15369595
@ASBCouncil,61320986
@asheen,15825020
@BarbOBrown,552957189
@BBaue,17879057
@BeaperezBea,518125684
@BeauEngman,374328521
@BICEPnews,583870567
@billmckibben,21786618
@bluNiall,20911015
@braveoneagency,389591882
@bruno68,14126939
@BSRnews,113696377
@BWCSRNews,86378681
@caelusconsult,108045600
@CamilleBeGreen,117576829
@CDP,43078165
@CDP_PaulS,2291041129
@CECPtweets,61023114
@CeresNews,38483313
@CFigueres,243236419
@changemakers,14677117
@ChristineArena,32540685
@christinebader,88431386
@cisl_cambridge,217430520
@claychristensen,60308942
@CleanTrillion,1954786904
@ClimateDesk,120181944
@climateprogress,28657802
@ClimateReality,16958346
@company2keepinc,154612193
@ConservationOrg,19940791
@CorpReg,217099473
@CSE_network,98642441
@CSR_Leaders,181184960
@CSRbloggers,178043968
@CSREuropeOrg,56367519
@CSRHUB,114609269
@CSRint,21933125
@csrnews,18454180
@CSRwire,16366271
@CynthiaCurtis,28358021
@DarrenBeck,15823023
@DaveStangis,18977445
@davidcoethica,15061067
@davidjoneshavas,2484751687
@Davos,102700680
@DerekMarkham,15048198
@DoughtyCentre,267808110
@DoughtyDavidG,767212939
@DougYPark,31476378
@DRGrist,22737278
@E_Liedel,133526344
@Earth2017,69372729
@Ecolibris,11004492
@elainecohen,18611746
@EnvDefenseFund,20068053
@eRevalue,2414767603
@essentialsln,2594709402
@Ethical_Corp,19019342
@EthicalSource,381661278
@evanharvey99,19434365
@FabianPattberg,14761507
@fairsnape,20776432
@FAIRTRADE,172726892
@FairTradeUSA,31469906
@FastCoExist,280716675
@fiercefern,112093795
@FirstPeoples,24723642
@Forum4theFuture,25340442
@GCF_News,2874183033
@GE_PowerWater,624797494
@GEHealthcare,15383592
@GErenewables,568213777
@GFriend,6877872
@GlblCtzn,596893898
@globalcompact,38704343
@GlobalGiving,9334532
@GreenBiz,15942016
@greenbiztweets,15952509
@Greenpeace,3459051
@greenpeaceusa,5360012
@GreenRacker,39730656
@greenwombat,15828276
@GRI_Secretariat,66687136
@guardianeco,20582958
@GuardianSustBiz,116469425
@HelleBankJorgen,385155982
@hjones_nike,14204908
@HuffPostGreen,45577446
@IKEAUSANews,2294627450
@INCRnews,1117043418
@Infrangilis_ltd,189952508
@Interface_NA,85406121
@Interface_UK,22608014
@IPCC_CH,192942213
@ItsBBMG,80936091
@JacquelynOttman,54548869
@jayhesl,44288504
@JaymiHeimbuch,19505749
@jeremyheimans,58257664
@JimHarris,15066876
@joconfino,106384372
@JohnFriedman,21030451
@JuanVillamayor,56304500
@Justmeans,31358286
@jyotib,20797591
@KaraHurst,28645658
@KarenLockridge,575800295
@Kate_Sheppard,15458181
@kateheiny,21521740
@KClarkeWhistler,301511859
@KimMarotta,851144203
@KPMG_US,18341726
@kpmguk,52393483
@kuminaidoo,19904685
@lauraclise,262940385
@laurenwylie,41519790
@LeonKaye,24027429
@Lisa_E_French,504324378
@LloydAlter,7272252
@M_A_Wallace,37089749
@Makower,15198966
@MarcGunther,22894243
@MarcStoiber,16870716
@MarcyMurninghan,15349717
@michaelmeehan,20396998
@Microsoft_Green,18800370
@MikeKapalko,67675766
@Mitch_Jackson,139729881
@MorganMM,17231943
@MotherNatureNet,16550480
@MPB_WBCSD,986324570
@n_kelley,213476613
@natcapsolutions,32240853
@NatUrbanLeague,21308157
@nature_org,17596622
@NBSnet,67034120
@nchockeychick,16888773
@neilchawkins,412673491
@Nestle,23085995
@nestlecsv,26048311
@NewClimateEcon,1876367312
@nikebetterworld,121173484
@NRDC,18713552
@OECD_ENV,84617373
@OliverBalch,81867033
@patagonia,16191793
@pauldruckman,20057900
@PavanSukhdev,207411537
@PeggyatKC,618773580
@PeterGGraf,18819700
@RajThamotheram,339606567
@RAN,10340482
@ReachScale,127881681
@RealizedWorth,20245040
@Reportingclimat,200553940
@RepRisk,288770895
@RI_News_Alert,136572828
@RnfrstAlliance,14786217
@RobecoSAM,2876293497
@RockyMtnInst,27911608
@RosabethKanter,68768975
@SandyFrucher,1691241530
@sapcsr,163504587
@SASB,567657016
@sfallender,44236915
@ShannonSchuyler,388335688
@sherylsandberg,19506790
@sierraclub,34113439
@simonmainwaring,30059550
@suekatus,1114149440
@susanmcp1,14844272
@sustainableSAP,20659742
@Sustainalytics,112237419
@SustainBrands,17990173
@SustMeme,39077431
@TaigaCompany,18637420
@thecarbontrust,41167959
@TheCROA,24193784
@theiirc,248619513
@TimJMohin,254196455
@TJDiCaprio,585041595
@TreeBanker,16593287
@TreeHugger,14634720
@triplepundit,18290719
@TrisaDellCRO,262687706
@tveitdal,75742264
@UCSUSA,18696996
@UN_CarbonMechs,494010838
@UN_Spokesperson,148517828
@unctadwif,377328685
@UNEP,38146999
@UNFCCC,17463923
@UNFCCCDocuments,1949282881
@UNFCCCwebcast,142282697
@UNGCCritics,29409641
@Unilever,109224937
@USCCFBiz4Good,16686516
@verdantflaneur,20506074
@VolansJohn,22128352
@WalmartAction,42638402
@WalmartGiving,84401852
@WalmartGreen,41885001
@WalmartHealthy,620213816
@WalmartHub,93634334
@WayneVisser,21927987
@wbcsd,317139568
@wef,5120691
@WestpacSustain,355185715
@Women_Rio20,365123359
@World_Wildlife,16029780
@WorldResources,14559745
@WRIClimate,202313343
@yalmazsiddiqui,229817142
@yesmagazine,15935927