350,climate
350,climate
350,climate
350,climate
350,climate
350,climate
350,climate
350,climate
350,climate
350,climate
350,climate
350,climate
3BLMedia,anticorruption
3BLMedia,anticorruption
3BLMedia,biodiversity
3BLMedia,climate
3BLMedia,climate
3BLMedia,compliance
3BLMedia,compliance
3BLMedia,compliance
3BLMedia,diversity
3BLMedia,diversity
3BLMedia,diversity
3BLMedia,diversity
3BLMedia,diversity
3BLMedia,diversity
3BLMedia,diversity
3BLMedia,diversity
3BLMedia,diversity
3BLMedia,diversity
3BLMedia,diversity
3BLMedia,diversity
3BLMedia,diversity
3BLMedia,diversity
3BLMedia,diversity
3BLMedia,diversity
3BLMedia,employeeengagement
3BLMedia,employeeengagement
3BLMedia,energy
3BLMedia,energy
3BLMedia,energy
3BLMedia,energy
3BLMedia,energy
3BLMedia,energy
3BLMedia,energy
3BLMedia,energy
3BLMedia,energy
3BLMedia,energy
3BLMedia,energy
3BLMedia,energy
3BLMedia,energy
3BLMedia,energy
3BLMedia,energy
3BLMedia,energy
3BLMedia,energy
3BLMedia,ghg
3BLMedia,ghg
3BLMedia,governance
3BLMedia,humanrights
3BLMedia,humanrights
3BLMedia,humanrights
3BLMedia,humanrights
3BLMedia,cybersecurity
3BLMedia,cybersecurity
3BLMedia,supplychain
3BLMedia,supplychain
3BLMedia,supplychain
3BLMedia,supplychain
3BLMedia,supplychain
3BLMedia,supplychain
3BLMedia,supplychain
3BLMedia,supplychain
3BLMedia,nutrition
3BLMedia,philanthropy
3BLMedia,philanthropy
3BLMedia,philanthropy
3BLMedia,philanthropy
3BLMedia,philanthropy
3BLMedia,recycling
3BLMedia,recycling
3BLMedia,recycling
3BLMedia,recycling
3BLMedia,recycling
3BLMedia,recycling
3BLMedia,recycling
3BLMedia,recycling
3BLMedia,recycling
3BLMedia,recycling
3BLMedia,recycling
3BLMedia,recycling
3BLMedia,renewable
3BLMedia,investment
3BLMedia,sri
adamelman,diversity
ADHumlen,diversity
AidaGreenbury,climate
AidaGreenbury,climate
AidaGreenbury,packaging
AlexParkinsonNY,philanthropy
AlexParkinsonNY,philanthropy
AlexParkinsonNY,philanthropy
alicekorngold,climate
alicekorngold,climate
alicekorngold,climate
alicekorngold,climate
alicekorngold,climate
alicekorngold,climate
alicekorngold,climate
alicekorngold,climate
alicekorngold,climate
alicekorngold,climate
alicekorngold,climate
alicekorngold,climate
alicekorngold,climate
alicekorngold,climate
alicekorngold,diversity
alicekorngold,diversity
alicekorngold,energy
alicekorngold,energy
alicekorngold,energy
alicekorngold,corpgov
alicekorngold,corpgov
alicekorngold,corpgov
alicekorngold,corpgov
alicekorngold,corpgov
alicekorngold,corpgov
alicekorngold,corpgov
alicekorngold,corpgov
alicekorngold,corpgov
alicekorngold,corpgov
alicekorngold,corpgov
alicekorngold,corpgov
alicekorngold,corpgov
alicekorngold,corpgov
alicekorngold,corpgov
alicekorngold,corpgov
alicekorngold,corpgov
alicekorngold,corpgov
alicekorngold,corpgov
alicekorngold,corpgov
alicekorngold,corpgov
alicekorngold,corpgov
alicekorngold,corpgov
alicekorngold,corpgov
alicekorngold,corpgov
alicekorngold,corpgov
alicekorngold,corpgov
alicekorngold,corpgov
alicekorngold,humanrights
alicekorngold,humanrights
alicekorngold,humanrights
alicekorngold,humanrights
alicekorngold,humanrights
alicekorngold,humanrights
alicekorngold,supplychain
alicekorngold,philanthropy
alicekorngold,sri
AmanSinghCSR,climate
AmanSinghCSR,climate
AmanSinghCSR,corpgov
AmanSinghCSR,supplychain
AmanSinghCSR,supplychain
AmanSinghCSR,supplychain
AmanSinghCSR,supplychain
AmanSinghCSR,renewable
AndreaLearned,climate
AndreaLearned,climate
AndreaLearned,climate
AndreaLearned,climate
AndreaLearned,climate
AndreaLearned,climate
AndreaLearned,climate
AndreaLearned,climate
AndreaLearned,climate
AndreaLearned,climate
AndreaLearned,climate
AndreaLearned,climate
AndreaLearned,climate
AndreaLearned,climate
AndreaLearned,climate
AndreaLearned,climate
AndreaLearned,climate
AndreaLearned,climate
AndreaLearned,climate
AndreaLearned,climate
AndreaLearned,climate
AndreaLearned,climate
AndreaLearned,climate
AndreaLearned,climate
AndreaLearned,climate
AndreaLearned,climate
AndreaLearned,climate
AndreaLearned,climate
AndreaLearned,climate
AndreaLearned,climate
AndreaLearned,climate
AndreaLearned,energy
AndreaLearned,ghg
AndreaLearned,corpgov
AndreaLearned,supplychain
AndreaLearned,renewable
AndreaLearned,renewable
AndreaLearned,renewable
AndreaLearned,renewable
AndreaLearned,renewable
AndreaLearned,renewable
AndreaLearned,renewable
AndreaLearned,renewable
AndrewWinston,climate
AndyCWales,energy
annalappe,climate
aroncramer,climate
aroncramer,climate
aroncramer,climate
aroncramer,climate
aroncramer,climate
aroncramer,climate
aroncramer,climate
aroncramer,supplychain
asheen,biodiversity
asheen,philanthropy
BarbOBrown,climate
BarbOBrown,employeeengagement
BICEPnews,climate
BICEPnews,climate
BICEPnews,climate
BICEPnews,climate
BICEPnews,climate
BICEPnews,climate
BICEPnews,climate
BICEPnews,climate
BICEPnews,climate
BICEPnews,climate
BICEPnews,ghg
BICEPnews,ghg
BICEPnews,corpgov
BICEPnews,sri
BICEPnews,sri
billmckibben,climate
bluNiall,climate
bluNiall,supplychain
bruno68,climate
bruno68,climate
bruno68,employeeengagement
bruno68,employeeengagement
bruno68,energy
bruno68,energy
bruno68,energy
bruno68,humanrights
bruno68,renewable
bruno68,reputation
BSRnews,climate
BSRnews,climate
BSRnews,climate
BSRnews,climate
BSRnews,climate
BSRnews,climate
BSRnews,climate
BSRnews,climate
BSRnews,climate
BSRnews,climate
BSRnews,compliance
BSRnews,humanrights
BSRnews,humanrights
caelusconsult,climate
caelusconsult,climate
caelusconsult,energy
caelusconsult,energy
caelusconsult,energy
caelusconsult,wage
caelusconsult,supplychain
caelusconsult,recycling
CDP,climate
CDP,climate
CDP,climate
CDP,climate
CDP,climate
CDP,climate
CDP,climate
CDP,climate
CDP,climate
CDP,climate
CDP,climate
CDP,energy
CDP,ghg
CDP,corpgov
CDP,corpgov
CDP,corpgov
CDP,supplychain
CDP,renewable
CeresNews,climate
CeresNews,climate
CeresNews,climate
CeresNews,climate
CeresNews,climate
CeresNews,climate
CeresNews,climate
CeresNews,climate
CeresNews,climate
CeresNews,climate
CeresNews,climate
CeresNews,climate
CeresNews,climate
CeresNews,climate
CeresNews,energy
CeresNews,energy
CeresNews,energy
CeresNews,energy
CeresNews,energy
CeresNews,energy
CeresNews,ghg
CeresNews,ghg
CeresNews,recycling
CeresNews,renewable
CeresNews,renewable
CeresNews,renewable
CeresNews,renewable
CFigueres,climate
CFigueres,climate
CFigueres,climate
CFigueres,climate
CFigueres,climate
CFigueres,corpgov
christinebader,climate
cisl_cambridge,climate
cisl_cambridge,climate
CleanTrillion,climate
CleanTrillion,climate
CleanTrillion,climate
CleanTrillion,climate
CleanTrillion,climate
CleanTrillion,climate
CleanTrillion,climate
CleanTrillion,climate
CleanTrillion,climate
CleanTrillion,climate
CleanTrillion,climate
CleanTrillion,climate
CleanTrillion,climate
CleanTrillion,climate
CleanTrillion,climate
CleanTrillion,climate
CleanTrillion,climate
CleanTrillion,climate
CleanTrillion,climate
CleanTrillion,climate
CleanTrillion,climate
CleanTrillion,climate
CleanTrillion,climate
CleanTrillion,climate
CleanTrillion,climate
CleanTrillion,climate
CleanTrillion,climate
CleanTrillion,climate
CleanTrillion,climate
CleanTrillion,climate
CleanTrillion,energy
CleanTrillion,energy
CleanTrillion,energy
CleanTrillion,renewable
CleanTrillion,renewable
CleanTrillion,investment
CleanTrillion,investment
ClimateReality,climate
ClimateReality,climate
ClimateReality,climate
ClimateReality,climate
ClimateReality,climate
ClimateReality,climate
ClimateReality,climate
ClimateReality,climate
ClimateReality,climate
ClimateReality,climate
ClimateReality,climate
ClimateReality,climate
ClimateReality,climate
ClimateReality,climate
ConservationOrg,climate
CSRbloggers,anticorruption
CSRbloggers,biodiversity
CSRbloggers,biodiversity
CSRbloggers,climate
CSRbloggers,climate
CSRbloggers,compliance
CSRbloggers,diversity
CSRbloggers,diversity
CSRbloggers,diversity
CSRbloggers,diversity
CSRbloggers,diversity
CSRbloggers,diversity
CSRbloggers,diversity
CSRbloggers,diversity
CSRbloggers,diversity
CSRbloggers,employeeengagement
CSRbloggers,employeeengagement
CSRbloggers,energy
CSRbloggers,energy
CSRbloggers,energy
CSRbloggers,energy
CSRbloggers,energy
CSRbloggers,energy
CSRbloggers,energy
CSRbloggers,energy
CSRbloggers,energy
CSRbloggers,energy
CSRbloggers,energy
CSRbloggers,energy
CSRbloggers,energy
CSRbloggers,energy
CSRbloggers,ghg
CSRbloggers,ghg
CSRbloggers,governance
CSRbloggers,humanrights
CSRbloggers,humanrights
CSRbloggers,humanrights
CSRbloggers,cybersecurity
CSRbloggers,cybersecurity
CSRbloggers,supplychain
CSRbloggers,supplychain
CSRbloggers,supplychain
CSRbloggers,supplychain
CSRbloggers,supplychain
CSRbloggers,supplychain
CSRbloggers,nutrition
CSRbloggers,nutrition
CSRbloggers,philanthropy
CSRbloggers,philanthropy
CSRbloggers,philanthropy
CSRbloggers,philanthropy
CSRbloggers,recycling
CSRbloggers,recycling
CSRbloggers,recycling
CSRbloggers,recycling
CSRbloggers,recycling
CSRbloggers,recycling
CSRbloggers,recycling
CSRbloggers,recycling
CSRbloggers,recycling
CSRbloggers,recycling
CSRbloggers,renewable
CSRbloggers,investment
CSRbloggers,sri
CSRbloggers,sri
CSRHUB,climate
CSRwire,climate
CSRwire,climate
CSRwire,compliance
CSRwire,compliance
CSRwire,compliance
CSRwire,diversity
CSRwire,diversity
CSRwire,diversity
CSRwire,diversity
CSRwire,diversity
CSRwire,diversity
CSRwire,diversity
CSRwire,diversity
CSRwire,diversity
CSRwire,diversity
CSRwire,diversity
CSRwire,employeeengagement
CSRwire,employeeengagement
CSRwire,employeeengagement
CSRwire,employeeengagement
CSRwire,employeeengagement
CSRwire,energy
CSRwire,energy
CSRwire,ghg
CSRwire,ghg
CSRwire,corpgov
CSRwire,corpgov
CSRwire,corpgov
CSRwire,corpgov
CSRwire,corpgov
CSRwire,corpgov
CSRwire,corpgov
CSRwire,corpgov
CSRwire,humanrights
CSRwire,humanrights
CSRwire,humanrights
CSRwire,humanrights
CSRwire,humanrights
CSRwire,humanrights
CSRwire,humanrights
CSRwire,humanrights
CSRwire,humanrights
CSRwire,humanrights
CSRwire,supplychain
CSRwire,supplychain
CSRwire,supplychain
CSRwire,supplychain
CSRwire,supplychain
CSRwire,philanthropy
CSRwire,philanthropy
CSRwire,philanthropy
CSRwire,philanthropy
CSRwire,philanthropy
CSRwire,philanthropy
CSRwire,philanthropy
CSRwire,philanthropy
CSRwire,philanthropy
CSRwire,philanthropy
CSRwire,philanthropy
CSRwire,philanthropy
CSRwire,philanthropy
CSRwire,philanthropy
CSRwire,philanthropy
CSRwire,philanthropy
CSRwire,philanthropy
CSRwire,philanthropy
CSRwire,philanthropy
CSRwire,philanthropy
CSRwire,philanthropy
CSRwire,philanthropy
CSRwire,philanthropy
CSRwire,philanthropy
CSRwire,philanthropy
CSRwire,philanthropy
CSRwire,philanthropy
CSRwire,philanthropy
CSRwire,philanthropy
CSRwire,philanthropy
CSRwire,philanthropy
CSRwire,philanthropy
CSRwire,philanthropy
CSRwire,philanthropy
CSRwire,philanthropy
CSRwire,recycling
CSRwire,recycling
CSRwire,recycling
CSRwire,sri
CSRwire,sri
CSRwire,sri
CSRwire,sri
CSRwire,sri
CSRwire,sri
CSRwire,sri
CSRwire,sri
CSRwire,sri
CSRwire,sri
CSRwire,sri
CSRwire,sri
CSRwire,sri
CSRwire,sri
CynthiaCurtis,energy
DaveStangis,employeeengagement
DaveStangis,nutrition
DaveStangis,recycling
davidcoethica,climate
davidcoethica,climate
davidcoethica,climate
davidcoethica,climate
davidcoethica,climate
davidcoethica,climate
davidcoethica,climate
davidcoethica,energy
davidcoethica,energy
davidcoethica,energy
davidcoethica,energy
davidcoethica,energy
davidcoethica,energy
davidcoethica,energy
davidcoethica,renewable
davidcoethica,renewable
Davos,energy
Davos,humanrights
Davos,investment
Davos,investment
derekmarkham,climate
derekmarkham,climate
derekmarkham,climate
DoughtyDavidG,climate
DoughtyDavidG,climate
DoughtyDavidG,supplychain
DougYPark,climate
DougYPark,compliance
DougYPark,compliance
DougYPark,corpgov
DougYPark,corpgov
DougYPark,corpgov
DougYPark,corpgov
DougYPark,corpgov
DougYPark,corpgov
DougYPark,corpgov
DougYPark,corpgov
DougYPark,corpgov
DougYPark,corpgov
DougYPark,corpgov
DougYPark,corpgov
DougYPark,corpgov
DougYPark,corpgov
DougYPark,corpgov
DougYPark,corpgov
DougYPark,corpgov
DougYPark,corpgov
DougYPark,corpgov
DougYPark,corpgov
DougYPark,corpgov
DougYPark,corpgov
DougYPark,corpgov
DougYPark,corpgov
DougYPark,corpgov
DougYPark,corpgov
DougYPark,corpgov
DougYPark,corpgov
DougYPark,corpgov
DougYPark,corpgov
DougYPark,corpgov
DougYPark,corpgov
DougYPark,corpgov
DougYPark,corpgov
DougYPark,corpgov
DougYPark,corpgov
DougYPark,corpgov
DougYPark,corpgov
DougYPark,corpgov
DougYPark,corpgov
DougYPark,corpgov
DougYPark,corpgov
DougYPark,corpgov
DougYPark,corpgov
DougYPark,corpgov
DougYPark,corpgov
DougYPark,corpgov
DougYPark,corpgov
DougYPark,corpgov
DougYPark,corpgov
DougYPark,corpgov
DougYPark,corpgov
DougYPark,corpgov
DougYPark,corpgov
DougYPark,corpgov
DougYPark,corpgov
DougYPark,cybersecurity
DougYPark,sri
DougYPark,sri
drvox,climate
drgrist,climate
DrVox,climate
drgrist,climate
drgrist,climate
drgrist,climate
earth2017,climate
earth2017,climate
earth2017,energy
earth2017,energy
earth2017,supplychain
ecolibris,supplychain
EnvDefenseFund,climate
EnvDefenseFund,climate
EnvDefenseFund,climate
EnvDefenseFund,climate
EnvDefenseFund,climate
EnvDefenseFund,climate
EnvDefenseFund,climate
EnvDefenseFund,energy
EnvDefenseFund,energy
eRevalue,diversity
eRevalue,employeeengagement
eRevalue,ghg
eRevalue,corpgov
eRevalue,humanrights
eRevalue,humanrights
eRevalue,netneutrality
eRevalue,netneutrality
eRevalue,netneutrality
eRevalue,sri
eRevalue,sri
eRevalue,sri
eRevalue,sri
eRevalue,sri
eRevalue,sri
eRevalue,sri
eRevalue,modernslavery
Ethical_Corp,climate
Ethical_Corp,climate
Ethical_Corp,climate
Ethical_Corp,climate
Ethical_Corp,climate
Ethical_Corp,climate
Ethical_Corp,climate
Ethical_Corp,climate
Ethical_Corp,climate
Ethical_Corp,compliance
Ethical_Corp,employeeengagement
Ethical_Corp,energy
Ethical_Corp,energy
Ethical_Corp,energy
Ethical_Corp,energy
Ethical_Corp,energy
Ethical_Corp,energy
Ethical_Corp,humanrights
Ethical_Corp,humanrights
Ethical_Corp,humanrights
Ethical_Corp,humanrights
Ethical_Corp,humanrights
Ethical_Corp,humanrights
Ethical_Corp,supplychain
Ethical_Corp,supplychain
Ethical_Corp,reputation
Ethical_Corp,reputation
Ethical_Corp,investment
Ethical_Corp,investment
evanharvey99,diversity
fairsnape,biodiversity
fairsnape,biodiversity
fairsnape,biodiversity
fairsnape,diversity
fairsnape,procurement
fairsnape,investment
FairTradeUSA,nutrition
FirstPeoples,biodiversity
FirstPeoples,biodiversity
FirstPeoples,biodiversity
FirstPeoples,biodiversity
FirstPeoples,biodiversity
FirstPeoples,biodiversity
FirstPeoples,biodiversity
FirstPeoples,energy
FirstPeoples,energy
FirstPeoples,energy
FirstPeoples,energy
FirstPeoples,energy
FirstPeoples,energy
FirstPeoples,energy
FirstPeoples,energy
FirstPeoples,energy
FirstPeoples,energy
FirstPeoples,energy
FirstPeoples,energy
FirstPeoples,energy
FirstPeoples,energy
FirstPeoples,energy
FirstPeoples,energy
FirstPeoples,energy
FirstPeoples,energy
FirstPeoples,energy
FirstPeoples,energy
FirstPeoples,energy
Forum4theFuture,energy
Forum4theFuture,supplychain
Forum4theFuture,supplychain
Forum4theFuture,supplychain
GCF_News,diversity
GE_PowerWater,energy
GE_PowerWater,energy
GE_PowerWater,energy
GE_PowerWater,energy
GE_PowerWater,renewable
gfriend,climate
gfriend,climate
gfriend,energy
GlblCtzn,climate
GlblCtzn,climate
globalcompact,climate
globalcompact,climate
globalcompact,climate
globalcompact,humanrights
globalcompact,humanrights
globalcompact,humanrights
globalcompact,humanrights
globalcompact,humanrights
globalcompact,humanrights
globalcompact,humanrights
globalcompact,humanrights
globalcompact,humanrights
GreenBiz,energy
greenbiztweets,supplychain
Greenpeace,climate
Greenpeace,climate
Greenpeace,climate
Greenpeace,climate
Greenpeace,climate
Greenpeace,climate
Greenpeace,climate
Greenpeace,climate
Greenpeace,climate
Greenpeace,climate
Greenpeace,climate
Greenpeace,energy
Greenpeace,netneutrality
Greenpeace,recycling
Greenpeace,renewable
Greenpeace,renewable
Greenpeace,renewable
Greenpeace,renewable
greenpeaceusa,climate
greenpeaceusa,climate
greenpeaceusa,climate
greenpeaceusa,climate
greenpeaceusa,humanrights
GRI_Secretariat,energy
guardianeco,climate
guardianeco,climate
guardianeco,energy
GuardianSustBiz,climate
GuardianSustBiz,climate
GuardianSustBiz,climate
GuardianSustBiz,climate
GuardianSustBiz,climate
GuardianSustBiz,climate
GuardianSustBiz,climate
GuardianSustBiz,energy
HelleBankJorgen,climate
HelleBankJorgen,climate
HelleBankJorgen,corpgov
HelleBankJorgen,corpgov
HelleBankJorgen,corpgov
HelleBankJorgen,corpgov
HelleBankJorgen,transport
hjones_nike,climate
hjones_nike,climate
hjones_nike,corpgov
HuffPostGreen,climate
HuffPostGreen,climate
HuffPostGreen,climate
INCRnews,climate
INCRnews,climate
INCRnews,climate
INCRnews,climate
INCRnews,climate
INCRnews,climate
INCRnews,climate
INCRnews,climate
INCRnews,climate
INCRnews,climate
INCRnews,climate
INCRnews,climate
INCRnews,climate
INCRnews,climate
INCRnews,climate
INCRnews,climate
INCRnews,climate
INCRnews,climate
INCRnews,climate
INCRnews,climate
INCRnews,climate
INCRnews,climate
INCRnews,climate
INCRnews,climate
INCRnews,climate
INCRnews,climate
INCRnews,climate
INCRnews,climate
INCRnews,climate
INCRnews,climate
INCRnews,climate
INCRnews,climate
INCRnews,climate
INCRnews,climate
INCRnews,climate
INCRnews,climate
INCRnews,climate
INCRnews,climate
INCRnews,climate
INCRnews,climate
INCRnews,climate
INCRnews,climate
INCRnews,climate
INCRnews,climate
INCRnews,climate
INCRnews,climate
INCRnews,climate
INCRnews,climate
INCRnews,climate
INCRnews,climate
INCRnews,climate
INCRnews,climate
INCRnews,climate
INCRnews,climate
INCRnews,climate
INCRnews,climate
INCRnews,climate
INCRnews,climate
INCRnews,climate
INCRnews,climate
INCRnews,climate
INCRnews,climate
INCRnews,climate
INCRnews,climate
INCRnews,climate
INCRnews,climate
INCRnews,climate
INCRnews,climate
INCRnews,climate
INCRnews,climate
INCRnews,climate
INCRnews,climate
INCRnews,climate
INCRnews,climate
INCRnews,climate
INCRnews,climate
INCRnews,climate
INCRnews,climate
INCRnews,climate
INCRnews,climate
INCRnews,climate
INCRnews,climate
INCRnews,climate
INCRnews,climate
INCRnews,climate
INCRnews,climate
INCRnews,climate
INCRnews,climate
INCRnews,climate
INCRnews,climate
INCRnews,climate
INCRnews,climate
INCRnews,climate
INCRnews,climate
INCRnews,climate
INCRnews,climate
INCRnews,climate
INCRnews,climate
INCRnews,climate
INCRnews,climate
INCRnews,climate
INCRnews,climate
INCRnews,climate
INCRnews,climate
INCRnews,climate
INCRnews,climate
INCRnews,climate
INCRnews,climate
INCRnews,climate
INCRnews,climate
INCRnews,climate
INCRnews,climate
INCRnews,climate
INCRnews,climate
INCRnews,climate
INCRnews,energy
INCRnews,energy
INCRnews,ghg
INCRnews,ghg
INCRnews,ghg
INCRnews,corpgov
INCRnews,corpgov
INCRnews,corpgov
INCRnews,renewable
INCRnews,renewable
INCRnews,investment
INCRnews,investment
jacquelynottman,recycling
jacquelynottman,recycling
jacquelynottman,recycling
jacquelynottman,recycling
jeremyheimans,climate
JimHarris,climate
JimHarris,climate
JimHarris,climate
JimHarris,climate
JimHarris,climate
JimHarris,climate
JimHarris,climate
JimHarris,climate
JimHarris,climate
JimHarris,climate
JimHarris,climate
JimHarris,climate
JimHarris,climate
JimHarris,climate
JimHarris,climate
JimHarris,climate
JimHarris,climate
JimHarris,climate
JimHarris,climate
JimHarris,climate
JimHarris,climate
JimHarris,climate
JimHarris,climate
JimHarris,climate
JimHarris,climate
JimHarris,climate
JimHarris,climate
JimHarris,climate
JimHarris,climate
JimHarris,climate
JimHarris,climate
JimHarris,energy
JimHarris,energy
JimHarris,energy
JimHarris,energy
JimHarris,energy
JimHarris,energy
JimHarris,energy
JimHarris,energy
JimHarris,energy
JimHarris,energy
JimHarris,energy
JimHarris,energy
JimHarris,energy
JimHarris,energy
JimHarris,energy
JimHarris,energy
JimHarris,energy
JimHarris,energy
JimHarris,energy
JimHarris,energy
JimHarris,energy
JimHarris,energy
JimHarris,energy
JimHarris,energy
JimHarris,energy
JimHarris,energy
JimHarris,energy
JimHarris,energy
JimHarris,energy
JimHarris,energy
JimHarris,energy
JimHarris,energy
JimHarris,renewable
JimHarris,renewable
JimHarris,renewable
JimHarris,renewable
JimHarris,renewable
JimHarris,renewable
JimHarris,renewable
JimHarris,renewable
JimHarris,renewable
joconfino,climate
JohnFriedman,diversity
JohnFriedman,diversity
JohnFriedman,employeeengagement
JohnFriedman,renewable
Justmeans,anticorruption
Justmeans,biodiversity
Justmeans,biodiversity
Justmeans,climate
Justmeans,climate
Justmeans,climate
Justmeans,climate
Justmeans,climate
Justmeans,compliance
Justmeans,diversity
Justmeans,diversity
Justmeans,diversity
Justmeans,diversity
Justmeans,diversity
Justmeans,diversity
Justmeans,diversity
Justmeans,diversity
Justmeans,diversity
Justmeans,diversity
Justmeans,diversity
Justmeans,diversity
Justmeans,diversity
Justmeans,diversity
Justmeans,diversity
Justmeans,diversity
Justmeans,diversity
Justmeans,diversity
Justmeans,diversity
Justmeans,diversity
Justmeans,diversity
Justmeans,diversity
Justmeans,diversity
Justmeans,diversity
Justmeans,diversity
Justmeans,diversity
Justmeans,employeeengagement
Justmeans,employeeengagement
Justmeans,energy
Justmeans,energy
Justmeans,energy
Justmeans,energy
Justmeans,energy
Justmeans,energy
Justmeans,energy
Justmeans,energy
Justmeans,energy
Justmeans,energy
Justmeans,energy
Justmeans,energy
Justmeans,energy
Justmeans,energy
Justmeans,energy
Justmeans,energy
Justmeans,energy
Justmeans,energy
Justmeans,energy
Justmeans,energy
Justmeans,energy
Justmeans,energy
Justmeans,energy
Justmeans,energy
Justmeans,energy
Justmeans,energy
Justmeans,energy
Justmeans,energy
Justmeans,energy
Justmeans,energy
Justmeans,energy
Justmeans,energy
Justmeans,energy
Justmeans,ghg
Justmeans,ghg
Justmeans,ghg
Justmeans,governance
Justmeans,governance
Justmeans,humanrights
Justmeans,humanrights
Justmeans,humanrights
Justmeans,humanrights
Justmeans,humanrights
Justmeans,humanrights
Justmeans,humanrights
Justmeans,humanrights
Justmeans,cybersecurity
Justmeans,cybersecurity
Justmeans,cybersecurity
Justmeans,supplychain
Justmeans,supplychain
Justmeans,supplychain
Justmeans,supplychain
Justmeans,supplychain
Justmeans,supplychain
Justmeans,supplychain
Justmeans,supplychain
Justmeans,supplychain
Justmeans,supplychain
Justmeans,supplychain
Justmeans,supplychain
Justmeans,supplychain
Justmeans,nutrition
Justmeans,nutrition
Justmeans,philanthropy
Justmeans,philanthropy
Justmeans,philanthropy
Justmeans,philanthropy
Justmeans,philanthropy
Justmeans,philanthropy
Justmeans,philanthropy
Justmeans,philanthropy
Justmeans,philanthropy
Justmeans,philanthropy
Justmeans,recycling
Justmeans,recycling
Justmeans,recycling
Justmeans,recycling
Justmeans,recycling
Justmeans,recycling
Justmeans,recycling
Justmeans,recycling
Justmeans,recycling
Justmeans,recycling
Justmeans,recycling
Justmeans,recycling
Justmeans,recycling
Justmeans,recycling
Justmeans,recycling
Justmeans,recycling
Justmeans,recycling
Justmeans,recycling
Justmeans,recycling
Justmeans,recycling
Justmeans,recycling
Justmeans,recycling
Justmeans,renewable
Justmeans,renewable
Justmeans,investment
Justmeans,sri
Justmeans,sri
Justmeans,sri
Justmeans,sri
Justmeans,sri
Justmeans,sri
Justmeans,sri
Justmeans,sri
Justmeans,sri
Justmeans,sri
Justmeans,sri
Justmeans,sri
Justmeans,sri
Justmeans,sri
Justmeans,sri
Justmeans,sri
Justmeans,sri
Justmeans,sri
Justmeans,sri
Justmeans,sri
Justmeans,sri
Justmeans,sri
jyotib,climate
KarenLockridge,climate
KarenLockridge,climate
KarenLockridge,climate
KarenLockridge,climate
KarenLockridge,climate
KarenLockridge,climate
KarenLockridge,climate
KarenLockridge,climate
KarenLockridge,climate
KarenLockridge,climate
KarenLockridge,climate
KarenLockridge,climate
KarenLockridge,climate
KarenLockridge,climate
KarenLockridge,energy
KarenLockridge,energy
KarenLockridge,energy
KarenLockridge,governance
KarenLockridge,humanrights
KarenLockridge,renewable
KarenLockridge,investment
kate_sheppard,climate
kate_sheppard,climate
KClarkeWhistler,biodiversity
KPMG_US,diversity
KPMG_US,energy
KPMG_US,energy
KPMG_US,governance
kpmguk,cybersecurity
kpmguk,cybersecurity
kpmguk,cybersecurity
kpmguk,cybersecurity
kpmguk,transport
kpmguk,transport
kuminaidoo,renewable
kuminaidoo,renewable
lauraclise,climate
lauraclise,climate
lauraclise,climate
lauraclise,climate
lauraclise,climate
lauraclise,climate
lauraclise,investment
laurenwylie,climate
laurenwylie,supplychain
LeonKaye,climate
LeonKaye,climate
LeonKaye,climate
LeonKaye,energy
LeonKaye,energy
LeonKaye,energy
LeonKaye,energy
LeonKaye,energy
LeonKaye,energy
LeonKaye,energy
LeonKaye,energy
LeonKaye,energy
LeonKaye,energy
LeonKaye,corpgov
LeonKaye,corpgov
LeonKaye,corpgov
LeonKaye,corpgov
LeonKaye,corpgov
LeonKaye,corpgov
LeonKaye,corpgov
LeonKaye,corpgov
LeonKaye,corpgov
LeonKaye,corpgov
LeonKaye,humanrights
LeonKaye,supplychain
LeonKaye,supplychain
LeonKaye,recycling
LeonKaye,recycling
LeonKaye,recycling
Lisa_E_French,corpgov
Lisa_E_French,corpgov
Lisa_E_French,governance
M_A_Wallace,ghg
M_A_Wallace,ghg
makower,climate
makower,climate
MarcGunther,climate
MarcGunther,climate
MarcGunther,climate
MarcGunther,climate
MarcGunther,climate
MarcGunther,climate
MarcGunther,climate
MarcGunther,climate
MarcGunther,climate
MarcGunther,climate
MarcGunther,climate
MarcGunther,climate
MarcGunther,climate
MarcGunther,climate
MarcGunther,climate
MarcGunther,climate
MarcGunther,climate
MarcGunther,climate
MarcGunther,climate
MarcGunther,climate
MarcGunther,climate
MarcGunther,climate
MarcGunther,climate
MarcGunther,climate
MarcGunther,climate
MarcGunther,climate
MarcGunther,climate
MarcGunther,climate
MarcGunther,climate
MarcGunther,climate
MarcGunther,climate
MarcGunther,climate
MarcGunther,climate
MarcGunther,climate
MarcGunther,climate
MarcGunther,supplychain
MarcGunther,philanthropy
MarcGunther,philanthropy
MarcGunther,philanthropy
MarcGunther,philanthropy
MarcGunther,philanthropy
MarcGunther,philanthropy
MarcGunther,philanthropy
MarcGunther,philanthropy
MarcGunther,philanthropy
MarcGunther,philanthropy
MarcGunther,recycling
MarcGunther,renewable
MarcyMurninghan,climate
MarcyMurninghan,diversity
MarcyMurninghan,corpgov
MarcyMurninghan,corpgov
MarcyMurninghan,corpgov
MarcyMurninghan,corpgov
MarcyMurninghan,corpgov
MarcyMurninghan,corpgov
MarcyMurninghan,corpgov
MarcyMurninghan,corpgov
MarcyMurninghan,corpgov
MarcyMurninghan,corpgov
MarcyMurninghan,corpgov
MarcyMurninghan,corpgov
MPB_WBCSD,climate
MPB_WBCSD,climate
MPB_WBCSD,climate
n_kelley,employeeengagement
NBSnet,climate
NBSnet,energy
NBSnet,supplychain
NBSnet,supplychain
NBSnet,supplychain
NBSnet,supplychain
NBSnet,renewable
neilchawkins,biodiversity
neilchawkins,climate
neilchawkins,climate
neilchawkins,climate
neilchawkins,climate
neilchawkins,climate
neilchawkins,climate
neilchawkins,climate
neilchawkins,climate
neilchawkins,energy
neilchawkins,energy
neilchawkins,energy
neilchawkins,energy
neilchawkins,energy
neilchawkins,energy
neilchawkins,energy
neilchawkins,energy
neilchawkins,energy
neilchawkins,energy
neilchawkins,energy
neilchawkins,energy
neilchawkins,energy
neilchawkins,energy
neilchawkins,energy
neilchawkins,energy
neilchawkins,energy
neilchawkins,nutrition
neilchawkins,packaging
neilchawkins,packaging
neilchawkins,recycling
neilchawkins,renewable
NewClimateEcon,climate
NewClimateEcon,climate
NewClimateEcon,climate
NewClimateEcon,climate
NewClimateEcon,climate
NewClimateEcon,climate
NewClimateEcon,climate
NewClimateEcon,climate
NewClimateEcon,climate
NewClimateEcon,climate
NewClimateEcon,climate
NewClimateEcon,climate
NewClimateEcon,climate
NewClimateEcon,climate
NewClimateEcon,climate
NewClimateEcon,climate
NewClimateEcon,climate
NewClimateEcon,climate
NewClimateEcon,climate
NewClimateEcon,climate
NewClimateEcon,energy
NewClimateEcon,energy
NewClimateEcon,energy
NewClimateEcon,energy
NewClimateEcon,energy
NewClimateEcon,energy
NewClimateEcon,energy
NewClimateEcon,energy
NewClimateEcon,energy
NewClimateEcon,energy
NewClimateEcon,energy
NewClimateEcon,energy
NewClimateEcon,ghg
NewClimateEcon,renewable
NewClimateEcon,renewable
NewClimateEcon,renewable
NewClimateEcon,renewable
NewClimateEcon,investment
NewClimateEcon,investment
NewClimateEcon,investment
NewClimateEcon,investment
NewClimateEcon,investment
NewClimateEcon,investment
NewClimateEcon,investment
NRDC,biodiversity
NRDC,climate
NRDC,climate
NRDC,climate
NRDC,climate
NRDC,climate
NRDC,climate
NRDC,climate
NRDC,climate
NRDC,climate
NRDC,climate
NRDC,climate
NRDC,climate
OECD_ENV,biodiversity
OECD_ENV,biodiversity
OECD_ENV,climate
OECD_ENV,climate
OECD_ENV,climate
OECD_ENV,climate
OECD_ENV,climate
OECD_ENV,energy
OECD_ENV,energy
OECD_ENV,energy
OECD_ENV,energy
OECD_ENV,energy
OECD_ENV,energy
OECD_ENV,transport
OECD_ENV,recycling
OECD_ENV,investment
OECD_ENV,investment
PeggyatKC,climate
PeggyatKC,climate
PeggyatKC,climate
PeggyatKC,climate
PeggyatKC,recycling
RajThamotheram,climate
RAN,climate
RAN,climate
RAN,climate
RAN,climate
RAN,climate
ReachScale,biodiversity
ReachScale,biodiversity
ReachScale,diversity
ReachScale,energy
ReachScale,humanrights
ReachScale,supplychain
ReachScale,nutrition
ReachScale,nutrition
ReachScale,nutrition
ReachScale,philanthropy
RI_News_Alert,sri
RnfrstAlliance,biodiversity
RnfrstAlliance,biodiversity
RnfrstAlliance,biodiversity
RnfrstAlliance,biodiversity
RnfrstAlliance,biodiversity
RnfrstAlliance,climate
RnfrstAlliance,climate
RnfrstAlliance,climate
RnfrstAlliance,climate
RobecoSAM,supplychain
RockyMtnInst,energy
RockyMtnInst,energy
RockyMtnInst,energy
RockyMtnInst,energy
RockyMtnInst,energy
RockyMtnInst,renewable
sapcsr,diversity
sapcsr,philanthropy
SASB,ghg
SASB,ghg
SASB,ghg
SASB,ghg
SASB,ghg
SASB,ghg
SASB,ghg
SASB,ghg
SASB,ghg
SASB,governance
SASB,cybersecurity
SASB,supplychain
SASB,supplychain
SASB,packaging
SASB,packaging
SASB,recycling
sfallender,humanrights
ShannonSchuyler,climate
sierraclub,climate
sierraclub,climate
sierraclub,climate
sierraclub,climate
sierraclub,climate
sierraclub,climate
sierraclub,climate
sierraclub,climate
sierraclub,climate
sierraclub,climate
sierraclub,climate
sierraclub,climate
sierraclub,climate
sierraclub,climate
sierraclub,climate
sierraclub,energy
sierraclub,energy
sierraclub,energy
simonmainwaring,energy
suekatus,diversity
suekatus,netneutrality
suekatus,reputation
susanmcp1,diversity
susanmcp1,diversity
susanmcp1,diversity
susanmcp1,diversity
susanmcp1,diversity
susanmcp1,energy
susanmcp1,corpgov
susanmcp1,corpgov
susanmcp1,corpgov
susanmcp1,netneutrality
susanmcp1,philanthropy
susanmcp1,philanthropy
susanmcp1,philanthropy
susanmcp1,philanthropy
susanmcp1,philanthropy
susanmcp1,philanthropy
susanmcp1,philanthropy
susanmcp1,philanthropy
susanmcp1,philanthropy
sustainableSAP,diversity
sustainableSAP,diversity
sustainableSAP,diversity
sustainableSAP,diversity
sustainableSAP,diversity
sustainableSAP,diversity
sustainableSAP,diversity
sustainableSAP,diversity
sustainableSAP,diversity
sustainableSAP,diversity
sustainableSAP,diversity
sustainableSAP,diversity
sustainableSAP,diversity
Sustainalytics,climate
Sustainalytics,energy
Sustainalytics,energy
Sustainalytics,energy
Sustainalytics,corpgov
Sustainalytics,corpgov
Sustainalytics,recycling
Sustainalytics,renewable
Sustainalytics,renewable
SustainBrands,climate
SustainBrands,climate
SustainBrands,climate
SustainBrands,climate
SustainBrands,climate
SustainBrands,climate
SustainBrands,climate
SustainBrands,climate
SustainBrands,climate
SustainBrands,climate
SustainBrands,climate
SustainBrands,climate
SustainBrands,climate
SustainBrands,climate
SustainBrands,climate
SustainBrands,climate
SustainBrands,supplychain
SustainBrands,supplychain
SustainBrands,supplychain
SustainBrands,supplychain
SustainBrands,supplychain
SustainBrands,supplychain
SustainBrands,supplychain
SustainBrands,supplychain
SustainBrands,supplychain
SustainBrands,supplychain
SustainBrands,supplychain
SustainBrands,supplychain
SustainBrands,supplychain
SustainBrands,supplychain
SustainBrands,supplychain
SustainBrands,supplychain
SustainBrands,supplychain
SustainBrands,supplychain
SustainBrands,supplychain
SustainBrands,supplychain
SustainBrands,supplychain
SustainBrands,supplychain
SustainBrands,supplychain
SustainBrands,supplychain
SustainBrands,supplychain
SustainBrands,supplychain
SustainBrands,supplychain
SustainBrands,supplychain
SustainBrands,supplychain
SustainBrands,recycling
SustainBrands,recycling
SustainBrands,recycling
SustainBrands,recycling
SustainBrands,recycling
SustainBrands,recycling
SustainBrands,recycling
SustainBrands,recycling
SustainBrands,recycling
SustainBrands,recycling
SustainBrands,recycling
SustainBrands,recycling
SustainBrands,recycling
SustainBrands,recycling
SustainBrands,recycling
SustainBrands,recycling
SustainBrands,recycling
SustainBrands,recycling
SustainBrands,recycling
SustainBrands,recycling
SustainBrands,recycling
SustainBrands,recycling
SustainBrands,recycling
SustainBrands,recycling
SustainBrands,renewable
SustMeme,climate
SustMeme,energy
SustMeme,energy
SustMeme,energy
SustMeme,energy
SustMeme,humanrights
SustMeme,supplychain
SustMeme,supplychain
SustMeme,supplychain
SustMeme,supplychain
TaigaCompany,energy
TaigaCompany,energy
TaigaCompany,energy
TaigaCompany,energy
TaigaCompany,energy
TaigaCompany,corpgov
TaigaCompany,packaging
TaigaCompany,packaging
TaigaCompany,packaging
thecarbontrust,energy
thecarbontrust,energy
thecarbontrust,energy
thecarbontrust,procurement
TimJMohin,climate
TimJMohin,climate
TimJMohin,compliance
TimJMohin,diversity
TimJMohin,diversity
TimJMohin,diversity
TimJMohin,humanrights
TreeBanker,climate
TreeBanker,climate
TreeBanker,climate
TreeBanker,climate
TreeBanker,climate
TreeBanker,climate
TreeBanker,climate
TreeBanker,climate
TreeBanker,climate
TreeBanker,climate
TreeBanker,renewable
TreeBanker,renewable
triplepundit,biodiversity
triplepundit,climate
triplepundit,climate
triplepundit,climate
triplepundit,climate
triplepundit,climate
triplepundit,climate
triplepundit,climate
triplepundit,climate
triplepundit,climate
triplepundit,climate
triplepundit,climate
triplepundit,climate
triplepundit,climate
triplepundit,climate
triplepundit,climate
triplepundit,climate
triplepundit,climate
triplepundit,climate
triplepundit,climate
triplepundit,climate
triplepundit,climate
triplepundit,climate
triplepundit,climate
triplepundit,climate
triplepundit,climate
triplepundit,climate
triplepundit,climate
triplepundit,climate
triplepundit,climate
triplepundit,diversity
triplepundit,diversity
triplepundit,diversity
triplepundit,diversity
triplepundit,employeeengagement
triplepundit,employeeengagement
triplepundit,employeeengagement
triplepundit,energy
triplepundit,energy
triplepundit,energy
triplepundit,energy
triplepundit,energy
triplepundit,energy
triplepundit,energy
triplepundit,energy
triplepundit,energy
triplepundit,energy
triplepundit,energy
triplepundit,energy
triplepundit,energy
triplepundit,energy
triplepundit,energy
triplepundit,energy
triplepundit,energy
triplepundit,energy
triplepundit,energy
triplepundit,energy
triplepundit,energy
triplepundit,energy
triplepundit,energy
triplepundit,energy
triplepundit,energy
triplepundit,energy
triplepundit,energy
triplepundit,energy
triplepundit,energy
triplepundit,energy
triplepundit,energy
triplepundit,energy
triplepundit,energy
triplepundit,energy
triplepundit,energy
triplepundit,energy
triplepundit,energy
triplepundit,energy
triplepundit,energy
triplepundit,wage
triplepundit,ghg
triplepundit,corpgov
triplepundit,corpgov
triplepundit,governance
triplepundit,governance
triplepundit,humanrights
triplepundit,humanrights
triplepundit,humanrights
triplepundit,humanrights
triplepundit,humanrights
triplepundit,supplychain
triplepundit,supplychain
triplepundit,supplychain
triplepundit,supplychain
triplepundit,supplychain
triplepundit,supplychain
triplepundit,supplychain
triplepundit,supplychain
triplepundit,supplychain
triplepundit,supplychain
triplepundit,supplychain
triplepundit,supplychain
triplepundit,supplychain
triplepundit,supplychain
triplepundit,supplychain
triplepundit,supplychain
triplepundit,supplychain
triplepundit,supplychain
triplepundit,supplychain
triplepundit,supplychain
triplepundit,supplychain
triplepundit,supplychain
triplepundit,supplychain
triplepundit,supplychain
triplepundit,supplychain
triplepundit,supplychain
triplepundit,supplychain
triplepundit,supplychain
triplepundit,supplychain
triplepundit,supplychain
triplepundit,supplychain
triplepundit,supplychain
triplepundit,supplychain
triplepundit,supplychain
triplepundit,supplychain
triplepundit,supplychain
triplepundit,supplychain
triplepundit,supplychain
triplepundit,supplychain
triplepundit,supplychain
triplepundit,supplychain
triplepundit,supplychain
triplepundit,supplychain
triplepundit,supplychain
triplepundit,supplychain
triplepundit,supplychain
triplepundit,nutrition
triplepundit,packaging
triplepundit,packaging
triplepundit,packaging
triplepundit,packaging
triplepundit,packaging
triplepundit,philanthropy
triplepundit,philanthropy
triplepundit,philanthropy
triplepundit,philanthropy
triplepundit,philanthropy
triplepundit,philanthropy
triplepundit,philanthropy
triplepundit,philanthropy
triplepundit,philanthropy
triplepundit,philanthropy
triplepundit,philanthropy
triplepundit,philanthropy
triplepundit,philanthropy
triplepundit,philanthropy
triplepundit,philanthropy
triplepundit,philanthropy
triplepundit,recycling
triplepundit,recycling
triplepundit,recycling
triplepundit,recycling
triplepundit,recycling
triplepundit,recycling
triplepundit,renewable
triplepundit,renewable
triplepundit,renewable
triplepundit,renewable
triplepundit,renewable
triplepundit,renewable
triplepundit,renewable
triplepundit,renewable
triplepundit,renewable
triplepundit,investment
triplepundit,investment
triplepundit,investment
triplepundit,investment
triplepundit,investment
triplepundit,investment
triplepundit,investment
triplepundit,sri
triplepundit,sri
triplepundit,sri
triplepundit,sri
triplepundit,sri
triplepundit,sri
triplepundit,sri
triplepundit,sri
triplepundit,sri
triplepundit,sri
triplepundit,sri
tveitdal,climate
tveitdal,climate
tveitdal,climate
tveitdal,climate
UCSUSA,climate
UCSUSA,climate
UCSUSA,climate
UCSUSA,climate
UCSUSA,climate
UCSUSA,climate
UCSUSA,climate
UCSUSA,climate
UCSUSA,climate
UCSUSA,climate
UCSUSA,climate
UCSUSA,renewable
UN_CarbonMechs,climate
UN_CarbonMechs,climate
UN_CarbonMechs,climate
UN_CarbonMechs,climate
UN_CarbonMechs,climate
UN_CarbonMechs,climate
UN_CarbonMechs,ghg
UN_Spokesperson,climate
UN_Spokesperson,humanrights
unctadwif,investment
unctadwif,investment
unctadwif,investment
unctadwif,investment
unctadwif,investment
unctadwif,investment
unctadwif,investment
unctadwif,investment
unctadwif,investment
unctadwif,investment
unctadwif,investment
unctadwif,investment
unctadwif,investment
UNEP,biodiversity
UNEP,climate
UNEP,climate
UNEP,climate
UNEP,climate
UNEP,climate
UNEP,energy
UNEP,energy
UNEP,renewable
UNEP,renewable
UNEP,renewable
UNFCCC,climate
UNFCCC,climate
UNFCCC,climate
UNFCCC,climate
UNFCCC,climate
UNFCCC,climate
UNFCCC,climate
UNFCCC,climate
UNFCCC,climate
UNFCCC,climate
UNFCCC,climate
UNFCCC,climate
UNFCCC,climate
UNFCCC,climate
UNFCCC,climate
UNFCCC,climate
UNFCCC,climate
UNFCCC,renewable
UNFCCC,renewable
Unilever,climate
Unilever,climate
Unilever,climate
USCCFBiz4Good,energy
verdantflaneur,philanthropy
volansjohn,climate
volansjohn,supplychain
volansjohn,supplychain
WayneVisser,climate
WayneVisser,climate
WayneVisser,climate
WayneVisser,diversity
WayneVisser,governance
WayneVisser,governance
WayneVisser,sri
wbcsd,biodiversity
wbcsd,climate
wbcsd,climate
wbcsd,climate
wbcsd,climate
wbcsd,climate
wbcsd,climate
wbcsd,climate
wbcsd,climate
wbcsd,climate
wbcsd,climate
wbcsd,climate
wbcsd,climate
wbcsd,climate
wbcsd,climate
wbcsd,climate
wbcsd,climate
wbcsd,climate
wbcsd,climate
wbcsd,climate
wbcsd,climate
wbcsd,climate
wbcsd,climate
wbcsd,climate
wbcsd,climate
wbcsd,climate
wbcsd,climate
wbcsd,climate
wbcsd,climate
wbcsd,climate
wbcsd,climate
wbcsd,ghg
wbcsd,humanrights
wef,biodiversity
wef,biodiversity
wef,climate
wef,climate
wef,climate
wef,climate
wef,climate
wef,climate
wef,climate
wef,diversity
wef,energy
wef,energy
wef,energy
wef,energy
wef,energy
wef,energy
wef,energy
wef,energy
wef,energy
wef,energy
wef,energy
wef,energy
wef,energy
wef,energy
wef,energy
wef,energy
wef,energy
wef,energy
wef,energy
wef,energy
wef,energy
wef,energy
wef,energy
wef,energy
wef,energy
wef,energy
wef,energy
wef,energy
wef,energy
wef,humanrights
wef,cybersecurity
wef,cybersecurity
wef,cybersecurity
wef,transport
wef,nutrition
wef,investment
wef,investment
wef,investment
wef,investment
wef,investment
wef,investment
wef,investment
wef,investment
wef,investment
wef,investment
wef,investment
wef,investment
Women_Rio20,climate
Women_Rio20,climate
Women_Rio20,climate
Women_Rio20,humanrights
Women_Rio20,humanrights
Women_Rio20,humanrights
WorldResources,biodiversity
WorldResources,climate
WorldResources,climate
WRIClimate,climate
WRIClimate,climate
WRIClimate,climate
WRIClimate,climate
WRIClimate,climate
WRIClimate,climate
WRIClimate,climate
WRIClimate,climate
WRIClimate,climate
WRIClimate,climate
WRIClimate,climate
WRIClimate,climate
WRIClimate,climate
WRIClimate,climate
WRIClimate,climate
WRIClimate,climate
WRIClimate,climate
WRIClimate,climate
WRIClimate,climate
WRIClimate,climate
WRIClimate,climate
WRIClimate,climate
WRIClimate,climate
WRIClimate,climate
WRIClimate,climate
WRIClimate,climate
WRIClimate,climate
WRIClimate,climate
WRIClimate,climate
WRIClimate,climate
WRIClimate,climate
WRIClimate,climate
WRIClimate,climate
WRIClimate,climate
WRIClimate,climate
WRIClimate,climate
WRIClimate,climate
WRIClimate,climate
WRIClimate,climate
WRIClimate,climate
WRIClimate,climate
WRIClimate,climate
WRIClimate,climate
WRIClimate,climate
WRIClimate,climate
WRIClimate,climate
WRIClimate,climate
WRIClimate,climate
WRIClimate,climate
WRIClimate,climate
WRIClimate,climate
WRIClimate,climate
WRIClimate,climate
WRIClimate,climate
WRIClimate,climate
WRIClimate,climate
WRIClimate,climate
WRIClimate,climate
WRIClimate,climate
WRIClimate,climate
WRIClimate,climate
WRIClimate,climate
WRIClimate,climate
WRIClimate,climate
WRIClimate,climate
WRIClimate,climate
WRIClimate,climate
WRIClimate,climate
WRIClimate,climate
WRIClimate,climate
WRIClimate,climate
WRIClimate,climate
WRIClimate,climate
WRIClimate,climate
WRIClimate,climate
WRIClimate,climate
WRIClimate,climate
WRIClimate,climate
WRIClimate,climate
WRIClimate,climate
WRIClimate,climate
WRIClimate,climate
WRIClimate,climate
WRIClimate,climate
WRIClimate,climate
WRIClimate,climate
WRIClimate,climate
WRIClimate,climate
WRIClimate,climate
WRIClimate,climate
WRIClimate,climate
WRIClimate,climate
WRIClimate,climate
WRIClimate,climate
WRIClimate,climate
WRIClimate,climate
WRIClimate,climate
WRIClimate,climate
WRIClimate,climate
WRIClimate,climate
WRIClimate,climate
WRIClimate,climate
WRIClimate,climate
WRIClimate,climate
WRIClimate,climate
WRIClimate,climate
WRIClimate,climate
WRIClimate,climate
WRIClimate,climate
WRIClimate,climate
WRIClimate,climate
WRIClimate,climate
WRIClimate,climate
WRIClimate,climate
WRIClimate,climate
WRIClimate,climate
WRIClimate,climate
WRIClimate,climate
WRIClimate,climate
WRIClimate,climate
WRIClimate,climate
WRIClimate,climate
WRIClimate,climate
WRIClimate,climate
WRIClimate,climate
WRIClimate,climate
WRIClimate,climate
WRIClimate,climate
WRIClimate,climate
WRIClimate,climate
WRIClimate,climate
WRIClimate,climate
WRIClimate,climate
WRIClimate,climate
WRIClimate,climate
WRIClimate,climate
WRIClimate,climate
WRIClimate,climate
WRIClimate,climate
WRIClimate,climate
WRIClimate,climate
WRIClimate,climate
WRIClimate,climate
WRIClimate,climate
WRIClimate,climate
WRIClimate,climate
WRIClimate,climate
WRIClimate,climate
WRIClimate,climate
WRIClimate,climate
WRIClimate,climate
WRIClimate,climate
WRIClimate,climate
WRIClimate,climate
WRIClimate,climate
WRIClimate,climate
WRIClimate,climate
WRIClimate,climate
WRIClimate,climate
WRIClimate,climate
WRIClimate,climate
WRIClimate,climate
WRIClimate,climate
WRIClimate,climate
WRIClimate,climate
WRIClimate,climate
WRIClimate,climate
WRIClimate,climate
WRIClimate,climate
WRIClimate,climate
WRIClimate,climate
WRIClimate,climate
WRIClimate,climate
WRIClimate,climate
WRIClimate,climate
WRIClimate,climate
WRIClimate,climate
WRIClimate,climate
WRIClimate,climate
WRIClimate,climate
WRIClimate,climate
WRIClimate,climate
WRIClimate,climate
WRIClimate,climate
WRIClimate,climate
WRIClimate,climate
WRIClimate,climate
WRIClimate,climate
WRIClimate,climate
WRIClimate,climate
WRIClimate,climate
WRIClimate,climate
WRIClimate,climate
WRIClimate,climate
WRIClimate,climate
WRIClimate,climate
WRIClimate,climate
WRIClimate,climate
WRIClimate,climate
WRIClimate,climate
WRIClimate,climate
WRIClimate,climate
WRIClimate,climate
WRIClimate,climate
WRIClimate,climate
WRIClimate,climate
WRIClimate,climate
WRIClimate,climate
WRIClimate,climate
WRIClimate,climate
WRIClimate,climate
WRIClimate,climate
WRIClimate,climate
WRIClimate,climate
WRIClimate,climate
WRIClimate,climate
WRIClimate,climate
WRIClimate,climate
WRIClimate,climate
WRIClimate,climate
WRIClimate,climate
WRIClimate,climate
WRIClimate,climate
WRIClimate,climate
WRIClimate,climate
WRIClimate,climate
WRIClimate,climate
WRIClimate,climate
WRIClimate,climate
WRIClimate,climate
WRIClimate,climate
WRIClimate,climate
WRIClimate,climate
WRIClimate,climate
WRIClimate,climate
WRIClimate,climate
WRIClimate,climate
WRIClimate,climate
WRIClimate,climate
WRIClimate,climate
WRIClimate,climate
WRIClimate,climate
WRIClimate,climate
WRIClimate,climate
WRIClimate,climate
WRIClimate,climate
WRIClimate,climate
WRIClimate,climate
WRIClimate,climate
WRIClimate,climate
WRIClimate,climate
WRIClimate,climate
WRIClimate,climate
WRIClimate,climate
WRIClimate,climate
WRIClimate,climate
WRIClimate,climate
WRIClimate,climate
WRIClimate,climate
WRIClimate,energy
WRIClimate,energy
WRIClimate,energy
WRIClimate,energy
WRIClimate,energy
WRIClimate,renewable
yesmagazine,climate
yesmagazine,climate
yesmagazine,climate
yesmagazine,climate
yesmagazine,climate
yesmagazine,climate
yesmagazine,climate
yesmagazine,humanrights
