@name,Twitter ID,Type,Name
@_BureauVeritas,166141989,Group,BureauVeritas
@AI_Careers,219310705,Group,Avivainvestors
@AJEnglish,4970411,Group,Al Jazeera
@algore,17220934,Individual,Al Gore
@anandmahindra,34197952,Individual,Mahindra (Anand Mahindra)
@ASX,28002931,Group,Australian Securities Exchange (ASX)
@Bangladesh_Bank,2576212016,Group,Central Bank of Bangladesh
@BarackObama,813286,Individual,Barack Obama
@BCCCC,27646654,Group,Boston College Center for Corporate Citizenship (BCCCC)
@bcgperspectives,39568996,Group,Boston Consulting Group (BCG)
@benrichards81,18974021,Individual,Ben Richards (Radley Yeldar)
@BICEPNews,583870567,Group,Business For Innovative Climate and Energy Policy (BICEP)
@billclinton,1330457336,Individual,Bill Clinton
@BillGates,50393960,Individual,Bill Gates
@Biz_in_Society,1278510732,Group,Business in Society
@BMFBOVESPA,74550038,Group,BM&FBOVESPA
@BMVMercados,135300500,Group,Bolsa Mexicana
@Bolchile,117426195,Group,Santiago Electronic Stock Exchange
@BorsaIstanbulEN,1361364534,Group,Borsa İstanbul
@BoschGlobal,217030924,Group,Bosch
@BrownFlynn,55360204,Group,BrownFlynn
@BSDConsulting,53056463,Group,BSD Consulting Zurich
@BSEIndia,951362244,Group,Bombay Stock Exchange Limited
@BursaMalaysiaKL,132731597,Group,Bursa Malaysia (Stock Exchange of Malaysia)
@business,34713362,Group,Bloomberg
@BVB_Ro,2881145506,Group,Bucharest Stock Exchange
@BVCColombia,77243413,Group,Colombian Securities Exchange
@CanadaTSX,89677806,Group,Toronto Stock Exchange (TSX)
@CDSBglobal,339730205,Group,Climate Disclosure Standards Board (CDSB)
@CeresNews,38483313,Group,Ceres
@CFOJournal,281160474,Group,CFO Journal
@Citibank,80374332,Group,Citibank
@ClimateBonds,561070834,Group,ClimateBonds
@CNETNews,819800,Group,CNET News
@CNN,759251,Group,CNN
@Conferenceboard,43889656,Group,The Conference Board
@corpgovnet,17625853,Individual,James McRitchie
@corporateknight,39692025,Group,Corporate Knights
@CorpReg,217099473,Group,Corporate Register
@CSA_News,478922792,Group,The Canadian Securities Administrators (CSA)
@DeutscheBoerse,82923521,Group,Deutsche Börse
@echasan,26597472,Individual,Emily Chasan
@EICCoalition,1430807556,Group,Electronic Industry Citizenship Coalition (EICC)
@EIRISNews,67319784,Group,EIRIS
@EPPensionAwards,1652985523,Group,European Pensions Awards
@EPRINews,61309973,Group,Electric Power Research Institute (EPRI)
@eroston,11620892,Individual,Eric Roston
@esgarchitect,99122519,Individual,Graham Sinclair
@essec,164257019,Group,ESSEC BusinessSchool
@Ethical_Corp,19019342,Group,Ethical Corporation
@EthicalBoard,2442458264,Group,Ethical Boardroom
@ethicalp,76615721,Group,Ethical Performance
@ethisphere,14353224,Group,Ethisphere Institute
@EU_Commission,157981564,Group,European Commission
@EuropeUnion,194119186,Group,European Union (EU)
@evanharvey99,19434365,Individual,Evan Harvey
@ey_mena,305486714,Group,EY MENA
@EYnews,70001932,Group,Ernst & Young
@FastCompany,2735591,Group,Fast Company
@FCC,66369206,Group,Federal Communications Commission (FCC)
@Forbes,91478624,Group,Forbes
@FortuneMagazine,25053299,Group,Fortune Magazine
@FRCnews,278470719,Group,Financial Reporting Council (FRC)
@FT,18949452,Group,Financial Times
@FTSEgm,365380310,Group,FTSE Global Markets
@FuelsEurope,561162525,Group,European Petroleum Industry Association (EUROPIA)
@GISRnews,986764976,Group,Global initiative for sustainability ratings
@GlassLewis,526806769,Group,Glass Lewis & Co.
@globalcompact,38704343,Group,UN Global Compact (UNGC)
@GoldmanSachs,253167239,Individual,Goldman Sachs
@GreenBiz,15942016,Group,Greenbiz
@GRI_Secretariat,66687136,Group,Global Reporting Initiative (GRI)
@guardian,87818409,Group,The Guardian
@GuardianSustBiz,116469425,Group,Guardian Sustainable Business
@HarvardBiz,14800270,Group,Harvard Business Review
@HarvardCorpGov,49410168,Group,Harvard Law School Program on Corporate Governance
@HarvardHBS,19606528,Group,Harvard Business School
@HECParis,35766159,Group,HEC Paris
@HKExGroup,815045821,Group,Hong Kong Stock Exchange (HKEx)
@HP,17193794,Group,Hewlett Packard (HP)
@HPLivingProg,263146493,Group,Hewlett Packard (HP) Living Progress
@ICAEWSustain,256004303,Group,ICAEW_Sustainability
@ICGNCorpGov,330366565,Group,International Corporate Governance Network
@ICMAgroup,462985513,Group,International Capital Market Association
@IFC_Investors,1920515275,Group,International Finance Corporation (IFC) Investor
@IFRSFoundation,179954463,Group,International Financial Reporting Standards (IFRS) Foundation
@IMFNews,25098482,Group,IMF - International Monetary Fund 
@InciteZA,70406059,Group,Incite
@INCRNews,1117043418,Group,Investor Network on Climate Risk (INCR)
@ING,333485431,Group,ING
@ING_news,111659710,Group,ING Group News
@INSEAD,113381235,Group,INSEAD
@issgovernance,259873777,Group,Institutional Shareholder Services Inc. (ISS)
@jastockex,1703418026,Group,Jamaica Stock Ex
@JPMorganChase_,2577316368,Group,JP Morgan Chase & Co.
@JSE_Group,423232386,Group,Johannesburg Stock Exchange
@KPMG,267939430,Group,KPMG
@KPMGNLSust,475772929,Group,KPMG Sustainability
@LAPFForum,198889353,Group,The Local Authority Pension Fund Forum (LAPFF)
@Lara_Muller,24446077,Individual,OnImpact (Lara Muller)
@LSEplc,621741028,Group,London Stock Exchange
@M_A_Wallace,37089749,Individual,Mike Wallace (BrownFlynn)
@mahindranews,85294977,Group,Mahindra
@MarketWatch,624413,Group,Market Watch
@MatteoTonelloNY,1083273062,Individual,The Conference Board (Matteo Tonello)
@MayorofLondon,14700117,Individual,Boris Johnson
@MerrillLynch,360685668,Group,Merrill Lynch
@methodosconsult,172176472,Group,Methodos
@MIGAWorldBank,37721761,Group,MIGA
@MikeBloomberg,16581604,Individual,Mike Bloomberg
@mito_pro,1630264681,Group,Mitopro
@MITSloan,8724862,Group,MIT Sloan School of Management
@mitsmr,15692087,Group,MITSloan Mgmt Review
@MSCI_Inc,59155308,Group,MSCI
@NACD,15752636,Group,The National Association of Corporate Directors (NACD) Directorship magazine
@NASDAQ,18639734,Group,Nasdaq
@NasdaqTech,17033995,Group,NASDAQ Tech
@newsfromIN,63781564,Group,Investment Week
@nsemarket,1857767305,Group,Nairobi Securities Exchange
@nsenigeria,44093375,Group,Nigerian Stock Exchange
@nyse,21323268,Group,NYSE
@nytimes,807095,Group,New York Times
@OECD,25390350,Group,Organisation for Economic Co-operation and Development (OECD
@opednews,16522257,Group,Op Ed News
@OSC_News,36157700,Group,Ontario Securities Commission (OSC)
@osca_ab,2163143436,Group,Oil Sands Community Alliance (OSCA)
@POTUS,1536791610,Group,Barack Obama (POTUS)
@PRI_News,153813437,Group,PRI Initiative
@princesa4s,214495006,Group,Prince'sA4SProject
@RadleyYeldar,39548147,Group,Radley Yeldar
@Reuters,1652541,Group,Thomson Reuters
@rgeccles,173976000,Individual,Robert Eccles
@RHDHV,507262793,Group,RHDHV
@RHDHV_Enviro,1359345036,Group,RHDHV Environment
@RHDHV_UK,50686367,Group,RHDHV UK
@RI_News_Alert,136572828,Group,Responsible Investor
@richardhowitt,180415006,Individual,Richard Howitt MEP
@RobecoSAM,2876293497,Group,RobecoSAM
@SA_INTL,50437787,Group,Social Accountability International (SAI)
@SandyFrucher,1691241530,Individual,Sandy Frucher
@seankidney,25713808,Individual,Sean Kidney
@SEBI_India,1448609910,Group,Securities and Exchange Board of India (SEBI)
@SEC_Investor_Ed,15633653,Group,SEC Investor Ed
@SEC_News,18481050,Group,U.S. Securities and Exchange Commission (SEC)
@SecComMY,2989113022,Group,The Securities Commission Malaysia
@SGX,2362057826,Group,Singapore Exchange
@Siemens,294120449,Group,Siemens
@richardbranson,8161232,Individual,Richard Branson
@sixgroup,1461394578,Group,SIX Swiss Exchange Ltd
@SquawkCNBC,404422077,Group,Squawk Box
@SSEinitiative,487430439,Group,Sustainable Stock Exchanges Initiative
@suncorenergy,34670905,Group,Suncor Energy
@tbli,21929131,Group,TBLI Foundation (Triple Bottom Line Investing)
@techreview,15808647,Group,MIT Technology Review
@The_IoD,59417574,Group,Institute of Directors (IoD)
@The_IoDSA,106677614,Group,Institute of Directors in Southern Africa (IoDSA)
@TheWFE,334741470,Group,World Federation of Exchanges
@tim_cook,1636590253,Individual,Tim Cook (Apple)
@tomi_pajunen,369099101,Individual,Mitopro (Tomi Pajunen)
@tonimuzifalconi,260375292,Individual,Methodos/ NYU / VATICAN UNIVERSITY (Marcantonio (Toni) Muzi Falconi)
@UKParliament,6467332,Group,UK Parliament
@UN,14159148,Group,United Nations (UN)
@unctadwif,377328685,Group,UNCTAD_Investment
@UNEP_FI,326214407,Group,United Nations Environment Programme Finance Initiative (UNEP FI)
@UPS,158129535,Group,UPS
@UPS_News,16798448,Group,UPS News
@UPSLongitudes,2339314981,Group,UPS Longitudes
@USAgov,14074515,Group,Federal government of the United States
@Verdantix,98662096,Group,Verdantix
@WarrenBuffett,1364930179,Individual,Warren Buffett
@wef,5120691,Group,World Economic Forum
@WorldBank,27860681,Group,International Finance Corporation (World Bank Group)
@WorldBank_IEG,123679190,Group,IEG - WB Group
@WSJ,3108351,Group,Wall Street Journal