user_id,screen_name,num_of_following
333485431,ING,1
179954463,IFRSFoundation,2
1448609910,SEBI_India,5
1361364534,BorsaIstanbulEN,6
259873777,issgovernance,8
2989113022,SecComMY,9
1330457336,billclinton,11
173976000,rgeccles,11
18481050,SEC_News,13
526806769,GlassLewis,13
15633653,SEC_Investor_Ed,17
15942016,GreenBiz,21
219310705,AI_Careers,22
17220934,algore,27
2576212016,Bangladesh_Bank,27
1636590253,tim_cook,39
49410168,HarvardCorpGov,44
1857767305,nsemarket,46
478922792,CSA_News,56
6467332,UKParliament,58
377328685,unctadwif,65
1536791610,POTUS,66
135300500,BMVMercados,72
2362057826,SGX,73
74550038,BMFBOVESPA,93
253167239,GoldmanSachs,104
172176472,methodosconsult,106
85294977,MahindraNews,120
294120449,Siemens,129
2881145506,BVB_Ro,129
4970411,AJEnglish,147
66369206,FCC,151
166141989,_BureauVeritas,154
1430807556,EICCoalition,165
50393960,BillGates,166
25713808,seankidney,174
951362244,BSEIndia,177
404422077,SquawkCNBC,179
14800270,HarvardBiz,190
34197952,anandmahindra,190
2163143436,osca_ab,191
34670905,suncorenergy,195
487430439,SSEinitiative,203
624413,MarketWatch,204
28002931,ASX,209
70001932,EYnews,217
986764976,GISRnews,235
14353224,ethisphere,237
76615721,ethicalp,239
819800,CNETNews,243
5120691,wef,244
1630264681,mito_pro,248
106677614,The_IoDSA,263
217030924,BoschGlobal,266
462985513,ICMAgroup,275
815045821,HKExGroup,284
16522257,opednews,289
16581604,MikeBloomberg,296
260375292,tonimuzifalconi,303
621741028,LSEplc,305
475772929,KPMGNLSust,317
1461394578,sixgroup,332
38704343,globalcompact,337
1359345036,RHDHV_Enviro,340
281160474,CFOJournal,362
25098482,IMFNews,366
198889353,LAPFForum,368
194119186,EuropeUnion,372
37721761,MIGAWorldBank,374
50686367,RHDHV_UK,392
15752636,NACD,416
217099473,CorpReg,420
50437787,SA_INTL,440
360685668,MerrillLynch,448
561070834,ClimateBonds,461
561162525,FuelsEurope,464
70406059,InciteZA,467
326214407,UNEP_FI,471
423232386,JSE_Group,479
305486714,ey_mena,485
59417574,The_IoD,490
113381235,INSEAD,498
334741470,TheWFE,508
25053299,FortuneMagazine,532
89677806,CanadaTSX,535
27860681,WorldBank,540
53056463,BSDConsulting,551
44093375,nsenigeria,605
1652985523,EPPensionAwards,607
82923521,DeutscheBoerse,624
256004303,ICAEWSustain,628
16798448,UPS_News,647
34713362,business,650
18949452,FT,659
19434365,evanharvey99,665
1278510732,Biz_in_Society,669
18974021,benrichards81,747
214495006,princesa4s,748
36157700,OSC_News,749
25390350,OECD,774
24446077,Lara_Muller,798
1691241530,SandyFrucher,798
17625853,corpgovnet,804
8724862,MITSloan,813
59155308,MSCI_Inc,827
14074515,USAgov,862
123679190,WorldBank_IEG,873
15692087,mitsmr,910
21929131,tbli,925
1920515275,IFC_Investors,949
14159148,UN,967
807095,nytimes,993
2577316368,JPMorganChase_,1003
3108351,WSJ,1008
339730205,CDSBglobal,1008
157981564,EU_Commission,1016
136572828,RI_News_Alert,1044
1652541,Reuters,1045
87818409,guardian,1095
759251,CNN,1098
27646654,BCCCC,1106
330366565,ICGNCorpGov,1177
35766159,HECParis,1264
19019342,Ethical_Corp,1284
77243413,BVCColombia,1304
369099101,tomi_pajunen,1304
278470719,FRCnews,1312
153813437,PRI_News,1326
63781564,newsfromIN,1451
61309973,EPRINews,1557
2876293497,RobecoSAM,1620
39548147,RadleyYeldar,1743
19606528,HarvardHBS,1761
43889656,Conferenceboard,1780
583870567,BICEPnews,1880
164257019,essec,1934
37089749,M_A_Wallace,1936
507262793,RHDHV,1939
39568996,bcgperspectives,1949
1703418026,jastockex,1988
263146493,HPLivingProg,2019
55360204,BrownFlynn,2245
267939430,KPMG,2258
116469425,GuardianSustBiz,2329
98662096,Verdantix,2365
66687136,GRI_Secretariat,2480
1083273062,MatteoTonelloNY,2509
17193794,HP,2583
2442458264,EthicalBoard,2590
15808647,techreview,2879
99122519,esgarchitect,2925
11620892,eroston,3110
14700117,MayorofLondon,3216
2339314981,UPSLongitudes,3435
39692025,corporateknight,3603
26597472,echasan,3632
21323268,nyse,3847
8161232,richardbranson,3854
2735591,FastCompany,3953
18639734,NASDAQ,4126
1117043418,INCRnews,4409
365380310,FTSEgm,4491
67319784,EIRISNews,4530
91478624,Forbes,5250
17033995,NasdaqTech,5956
158129535,UPS,5990
180415006,richardhowitt,6129
38483313,CeresNews,7521
111659710,ING_news,7894
80374332,Citibank,37018
813286,BarackObama,642153