"","user_id","screen_name","num_of_followers","num_of_following","num_of_tweets","created","location","Type"
"1","106677614","The_IoDSA",1162,263,2445,"20-01-2010","South Africa","Group"
"2","1083273062","MatteoTonelloNY",3576,2509,231,"12-01-2013","New York, NY","Individual"
"3","111659710","ING_news",22771,7894,1265,"05-02-2010","Amsterdam","Group"
"4","1117043418","INCRnews",5847,4409,17976,"24-01-2013","Boston, MA","Group"
"5","113381235","INSEAD",33843,498,3831,"11-02-2010","Europe, Asia, Middle East","Group"
"6","11620892","eroston",5871,3110,8167,"29-12-2007","New York, NY","Individual"
"7","116469425","GuardianSustBiz",111130,2329,40282,"22-02-2010","London/New York","Group"
"8","117426195","Bolchile",32243,0,173930,"25-02-2010","Santiago de Chile","Group"
"9","123679190","WorldBank_IEG",11356,873,5103,"16-03-2010","Washington, DC","Group"
"10","1278510732","Biz_in_Society",601,669,767,"18-03-2013","","Group"
"11","132731597","BursaMalaysiaKL",3050,0,1259,"14-04-2010","Kuala Lumpur, Malaysia","Group"
"12","1330457336","billclinton",3713805,11,308,"06-04-2013","New York, NY","Individual"
"13","135300500","BMVMercados",70949,72,9276,"20-04-2010","","Group"
"14","1359345036","RHDHV_Enviro",300,340,697,"17-04-2013","United Kingdom","Group"
"15","1361364534","BorsaIstanbulEN",1509,6,806,"18-04-2013","","Group"
"16","1364930179","WarrenBuffett",1045224,0,7,"19-04-2013","Omaha, NE","Individual"
"17","136572828","RI_News_Alert",4798,1044,1015,"24-04-2010","London","Group"
"18","14074515","USAgov",301669,862,6009,"03-03-2008","Washington, DC","Group"
"19","14159148","UN",4211623,967,37203,"16-03-2008","New York, NY","Group"
"20","1430807556","EICCoalition",500,165,922,"15-05-2013","Washington, D.C.","Group"
"21","14353224","ethisphere",3315,237,2313,"10-04-2008","New York, NY","Group"
"22","1448609910","SEBI_India",1268,5,1023,"22-05-2013","MUMBAI","Group"
"23","1461394578","sixgroup",924,332,294,"27-05-2013","Switzerland","Group"
"24","14700117","MayorofLondon",1347652,3216,4550,"08-05-2008","London","Individual"
"25","14800270","HarvardBiz",2120038,190,32555,"16-05-2008","Boston, MA","Group"
"26","1536791610","POTUS",2801746,66,41,"21-06-2013","Washington, D.C.","Group"
"27","153813437","PRI_News",5040,1326,820,"09-06-2010","London","Group"
"28","15633653","SEC_Investor_Ed",47824,17,2269,"28-07-2008","Washington, DC","Group"
"29","15692087","mitsmr",56316,910,9912,"01-08-2008","Cambridge, MA","Group"
"30","15752636","NACD",5489,416,7027,"06-08-2008","Washington, DC","Group"
"31","157981564","EU_Commission",414333,1016,17360,"21-06-2010","Brussels, Belgium","Group"
"32","15808647","techreview",409062,2879,30224,"11-08-2008","Cambridge, MA","Group"
"33","158129535","UPS",133622,5990,19344,"21-06-2010","Atlanta, GA","Group"
"34","15942016","GreenBiz",72020,21,10912,"22-08-2008","Oakland, CA","Group"
"35","1630264681","mito_pro",200,248,204,"29-07-2013","Suomi-Finland","Group"
"36","1636590253","tim_cook",1269588,39,159,"31-07-2013","Cupertino","Individual"
"37","164257019","essec",15211,1934,12752,"08-07-2010","Paris - Singapore","Group"
"38","16522257","opednews",2877,289,54365,"30-09-2008","Newtown, PA","Group"
"39","1652541","Reuters",7423643,1045,122361,"20-03-2007","Around the world","Group"
"40","1652985523","EPPensionAwards",188,607,368,"07-08-2013","25 June, Grosvenor House Hotel","Group"
"41","16581604","MikeBloomberg",735901,296,8330,"03-10-2008","New York City","Individual"
"42","166141989","_BureauVeritas",4667,154,2986,"13-07-2010","Neuilly-sur-Seine - France","Group"
"43","16798448","UPS_News",36541,647,2435,"16-10-2008","Atlanta, GA","Group"
"44","1691241530","SandyFrucher",355,798,545,"22-08-2013","New York, NY","Individual"
"45","17033995","NasdaqTech",30605,5956,8791,"29-10-2008","Global","Group"
"46","1703418026","jastockex",1336,1988,568,"27-08-2013","Jamaica W.I","Group"
"47","17193794","HP",912255,2583,34273,"05-11-2008","USA","Group"
"48","172176472","methodosconsult",26,106,140,"29-07-2010","Salvador, Brazil","Group"
"49","17220934","algore",2782363,27,1608,"06-11-2008","Nashville, TN","Individual"
"50","173976000","rgeccles",806,11,26,"02-08-2010","Lexington, MA","Individual"
"51","17625853","corpgovnet",4115,804,10464,"25-11-2008","Elk Grove, CA","Individual"
"52","179954463","IFRSFoundation",9015,2,441,"18-08-2010","","Group"
"53","180415006","richardhowitt",11477,6129,17204,"19-08-2010","East of England","Individual"
"54","18481050","SEC_News",216965,13,4493,"30-12-2008","Washington, DC","Group"
"55","1857767305","nsemarket",140,46,51,"12-09-2013","","Group"
"56","18639734","NASDAQ",422655,4126,14099,"05-01-2009","Times Square, New York","Group"
"57","18949452","FT",1798403,659,88610,"13-01-2009","London","Group"
"58","18974021","benrichards81",867,747,1319,"14-01-2009","London","Individual"
"59","19019342","Ethical_Corp",24032,1284,19358,"15-01-2009","London, UK","Group"
"60","1920515275","IFC_Investors",553,949,534,"30-09-2013","Washington, D.C., USA","Group"
"61","194119186","EuropeUnion",4802,372,10640,"23-09-2010","Bruxelles","Group"
"62","19434365","evanharvey99",767,665,7987,"24-01-2009","Washington, DC","Individual"
"63","19606528","HarvardHBS",229793,1761,6951,"27-01-2009","Boston, MA USA","Group"
"64","198889353","LAPFForum",442,368,1415,"05-10-2010","UK ","Group"
"65","21323268","nyse",1002676,3847,20508,"19-02-2009","Global","Group"
"66","214495006","princesa4s",1662,748,1364,"11-11-2010","London, United Kingdom ","Group"
"67","2163143436","osca_ab",299,191,1139,"29-10-2013","Fort McMurray, AB.","Group"
"68","217030924","BoschGlobal",92844,266,5466,"18-11-2010","Stuttgart, Germany","Group"
"69","217099473","CorpReg",1962,420,1004,"18-11-2010","","Group"
"70","21929131","tbli",1513,925,35442,"25-02-2009","Amsterdam","Group"
"71","219310705","AI_Careers",169,22,58,"24-11-2010","London","Group"
"72","2339314981","UPSLongitudes",2769,3435,2745,"11-02-2014","Atlanta, GA","Group"
"73","2362057826","SGX",10549,73,457,"26-02-2014","","Group"
"74","2442458264","EthicalBoard",4834,2590,4047,"13-04-2014","London","Group"
"75","24446077","Lara_Muller",626,798,1279,"14-03-2009","Amsterdam","Individual"
"76","25053299","FortuneMagazine",1743740,532,52241,"18-03-2009","New York","Group"
"77","25098482","IMFNews",623343,366,7577,"18-03-2009","Washington, DC","Group"
"78","253167239","GoldmanSachs",358410,104,4239,"16-02-2011","","Individual"
"79","25390350","OECD",360338,774,8821,"19-03-2009","Paris","Group"
"80","256004303","ICAEWSustain",1002,628,909,"22-02-2011","London, UK","Group"
"81","25713808","seankidney",1001,174,2806,"21-03-2009","CEO @ClimateBonds London","Individual"
"82","2576212016","Bangladesh_Bank",90,27,1,"19-06-2014","Motijeel, Dhaka, Bangladesh","Group"
"83","2577316368","JPMorganChase_",1090,1003,3799,"19-06-2014","","Group"
"84","259873777","issgovernance",313,8,86,"02-03-2011","Americas, EMEA, Asia-Pacific","Group"
"85","260375292","tonimuzifalconi",496,303,218,"03-03-2011","new york/ rome","Individual"
"86","263146493","HPLivingProg",5846,2019,3597,"09-03-2011","Palo Alto, California","Group"
"87","26597472","echasan",5559,3632,5468,"25-03-2009","New York","Individual"
"88","267939430","KPMG",185017,2258,8122,"17-03-2011","","Group"
"89","2735591","FastCompany",1828522,3953,113929,"28-03-2007","New York, NY","Group"
"90","27646654","BCCCC",4600,1106,5895,"30-03-2009","Chestnut Hill, MA","Group"
"91","278470719","FRCnews",2540,1312,2048,"07-04-2011","London","Group"
"92","27860681","WorldBank",1423690,540,21644,"31-03-2009","Washington, DC","Group"
"93","28002931","ASX",21339,209,1552,"01-04-2009","Sydney, Australia","Group"
"94","281160474","CFOJournal",4980,362,5654,"12-04-2011","","Group"
"95","2876293497","RobecoSAM",772,1620,487,"14-11-2014","Zurich, Switzerland","Group"
"96","2881145506","BVB_Ro",147,129,149,"17-11-2014","Bucharest, Romania","Group"
"97","294120449","Siemens",63508,129,3162,"06-05-2011","Munich","Group"
"98","2989113022","SecComMY",193,9,60,"21-01-2015","Kuala Lumpur","Group"
"99","305486714","ey_mena",5163,485,1988,"26-05-2011","Middle East & North Africa","Group"
"100","3108351","WSJ",6568365,1008,124353,"01-04-2007","New York, NY","Group"
"101","326214407","UNEP_FI",4517,471,727,"29-06-2011","Geneva","Group"
"102","330366565","ICGNCorpGov",2092,1177,1384,"06-07-2011","UK","Group"
"103","333485431","ING",2344,1,1,"11-07-2011","Amsterdam","Group"
"104","334741470","TheWFE",977,508,311,"13-07-2011","London","Group"
"105","339730205","CDSBglobal",1411,1008,4960,"21-07-2011","Worldwide","Group"
"106","34197952","anandmahindra",2069890,190,9974,"22-04-2009","Mumbai, India","Individual"
"107","34670905","suncorenergy",21612,195,3523,"23-04-2009","Calgary, Alberta, Canada","Group"
"108","34713362","business",2347385,650,98227,"23-04-2009","New York and the World","Group"
"109","35766159","HECParis",30125,1264,13821,"27-04-2009","Jouy en Josas, France","Group"
"110","360685668","MerrillLynch",339636,448,1839,"23-08-2011","","Group"
"111","36157700","OSC_News",1766,749,2182,"28-04-2009","Ontario","Group"
"112","365380310","FTSEgm",23813,4491,8350,"31-08-2011","London, New York, Joburg","Group"
"113","369099101","tomi_pajunen",631,1304,1177,"06-09-2011","Helsinki","Individual"
"114","37089749","M_A_Wallace",2672,1936,3025,"02-05-2009","Los Angeles","Individual"
"115","37721761","MIGAWorldBank",3658,374,1809,"04-05-2009","Washington, DC","Group"
"116","377328685","unctadwif",2838,65,1799,"21-09-2011","Geneva","Group"
"117","38483313","CeresNews",26941,7521,6765,"07-05-2009","Boston, MA","Group"
"118","38704343","globalcompact",51888,337,4777,"08-05-2009","","Group"
"119","39548147","RadleyYeldar",3350,1743,2367,"12-05-2009","London","Group"
"120","39568996","bcgperspectives",39626,1949,5548,"12-05-2009","Global","Group"
"121","39692025","corporateknight",9164,3603,6947,"13-05-2009","Canada","Group"
"122","404422077","SquawkCNBC",95873,179,12560,"03-11-2011","New York, NY","Group"
"123","423232386","JSE_Group",18852,479,6914,"28-11-2011","Johannesburg, South Africa","Group"
"124","43889656","Conferenceboard",8925,1780,6676,"01-06-2009","www.conference-board.org","Group"
"125","44093375","nsenigeria",8825,605,898,"02-06-2009","12.004828,8.545864","Group"
"126","462985513","ICMAgroup",635,275,702,"13-01-2012","Zurich, Switzerland","Group"
"127","475772929","KPMGNLSust",1145,317,758,"27-01-2012","Amstelveen","Group"
"128","478922792","CSA_News",664,56,3096,"30-01-2012","","Group"
"129","487430439","SSEinitiative",872,203,539,"09-02-2012","","Group"
"130","49410168","HarvardCorpGov",7323,44,3361,"21-06-2009","Cambridge, MA","Group"
"131","4970411","AJEnglish",2457109,147,139579,"17-04-2007","Doha, Qatar","Group"
"132","50393960","BillGates",22984736,166,1710,"24-06-2009","Seattle, WA","Individual"
"133","50437787","SA_INTL",1255,440,1392,"24-06-2009"," ","Group"
"134","50686367","RHDHV_UK",2023,392,1051,"25-06-2009","UK","Group"
"135","507262793","RHDHV",4053,1939,2315,"28-02-2012","Global","Group"
"136","5120691","wef",2530101,244,17970,"18-04-2007","Geneva, Switzerland","Group"
"137","526806769","GlassLewis",984,13,407,"16-03-2012","US, IRE, Germany, Australia","Group"
"138","53056463","BSDConsulting",1973,551,2363,"02-07-2009","Global","Group"
"139","55360204","BrownFlynn",2098,2245,2389,"09-07-2009","Cleveland, Ohio","Group"
"140","561070834","ClimateBonds",1942,461,2918,"23-04-2012","London","Group"
"141","561162525","FuelsEurope",673,464,2556,"23-04-2012","Brussels, Europe","Group"
"142","583870567","BICEPnews",2007,1880,3104,"18-05-2012","Boston, MA","Group"
"143","59155308","MSCI_Inc",3085,827,1147,"22-07-2009","","Group"
"144","59417574","The_IoD",37021,490,9044,"23-07-2009","United Kingdom","Group"
"145","61309973","EPRINews",10175,1557,2418,"29-07-2009","Palo Alto, California","Group"
"146","621741028","LSEplc",14298,305,5097,"29-06-2012","Paternoster Square, London","Group"
"147","624413","MarketWatch",1455934,204,117791,"11-01-2007","","Group"
"148","63781564","newsfromIN",35655,1451,9939,"07-08-2009","New York","Group"
"149","6467332","UKParliament",588519,58,9816,"31-05-2007","Westminster, London","Group"
"150","66369206","FCC",753001,151,6342,"17-08-2009","Washington, DC","Group"
"151","66687136","GRI_Secretariat",23275,2480,2147,"18-08-2009","","Group"
"152","67319784","EIRISNews",4599,4530,3060,"20-08-2009","Global","Group"
"153","70001932","EYnews",131887,217,4726,"30-08-2009","","Group"
"154","70406059","InciteZA",852,467,1563,"31-08-2009","","Group"
"155","74550038","BMFBOVESPA",55891,93,11605,"15-09-2009","São Paulo","Group"
"156","759251","CNN",17864615,1098,63315,"09-02-2007","","Group"
"157","76615721","ethicalp",2797,239,1510,"23-09-2009","United Kingdom","Group"
"158","77243413","BVCColombia",131557,1304,20147,"25-09-2009","Bogotá, Colombia","Group"
"159","80374332","Citibank",235961,37018,6651,"06-10-2009","","Group"
"160","807095","nytimes",17513945,993,187635,"02-03-2007","New York City","Group"
"161","813286","BarackObama",60862985,642153,13623,"05-03-2007","Washington, DC","Individual"
"162","815045821","HKExGroup",1400,284,2057,"10-09-2012","Hong Kong","Group"
"163","8161232","richardbranson",5937471,3854,8562,"13-08-2007","","Individual"
"164","819800","CNETNews",468424,243,68728,"07-03-2007","San Francisco, CA","Group"
"165","82923521","DeutscheBoerse",7465,624,4302,"16-10-2009","Worldwide","Group"
"166","85294977","MahindraNews",13196,120,2024,"26-10-2009","India","Group"
"167","8724862","MITSloan",122155,813,3301,"07-09-2007","Cambridge, MA","Group"
"168","87818409","guardian",3787059,1095,158302,"05-11-2009","London","Group"
"169","89677806","CanadaTSX",796,535,274,"13-11-2009","Gibraltar","Group"
"170","91478624","Forbes",5712996,5250,101097,"21-11-2009","New York, NY","Group"
"171","951362244","BSEIndia",1507,177,2229,"16-11-2012","Mumbai, India","Group"
"172","98662096","Verdantix",2328,2365,8395,"22-12-2009","London, New York","Group"
"173","986764976","GISRnews",539,235,248,"03-12-2012","Boston, MA; Washington, DC","Group"
"174","99122519","esgarchitect",2684,2925,14067,"24-12-2009","Boston USA + Cape Town RSA","Individual"
