,user_id,screen_name,num_of_followers,num_of_following,num_of_tweets,created_date,location,type
222,14266598,350,236319,19565,22797,2008-03-31 14:57:10,Everywhere,Group
208,23484042,3BLMedia,17762,8433,82439,2009-03-09 19:17:57,Global,Group
146,41174253,adamelman,4618,1869,6360,2009-05-19 18:23:43,London, England,Individual
92,18929090,adamwerbach,16364,790,10839,2009-01-13 04:38:08,San Francisco, CA,Individual
159,45879513,ADHumlen,4034,2077,22268,2009-06-09 16:47:30,New York City,Individual
105,90403900,AidaGreenbury,2114,915,5393,2009-11-16 14:32:15,Jakarta & everywhere,Individual
62,2209507579,AlexParkinsonNY,214,545,277,2013-11-22 20:23:10,Atlanta,Individual
8,17220934,algore,2767832,27,1590,2008-11-06 22:21:18,Nashville, TN,Individual
104,46903629,alicekorngold,11584,874,17706,2009-06-13 15:26:20,NYC,Individual
163,95930466,AmanSinghCSR,15468,2111,33460,2009-12-10 16:08:36,New York,Individual
130,18509444,AmyFranko,1366,1283,1737,2008-12-31 16:20:45,Columbus, Ohio,Individual
191,14676835,AndreaLearned,8796,3930,32624,2008-05-06 18:18:34,Seattle,Individual
121,33955377,AndrewWinston,16042,1144,5060,2009-04-21 16:30:00,Greenwich, CT,Individual
53,108062719,AndyCWales,3659,490,1927,2010-01-24 18:21:32,London,Individual
107,105334381,annalappe,23337,921,5010,2010-01-16 01:59:49,California,Individual
82,627659646,AprilHCrow,532,723,476,2012-07-05 17:49:05,Atlanta,Individual
51,15369595,aroncramer,7585,460,3329,2008-07-09 19:56:39,Berkeley, CA, USA,Individual
136,61320986,ASBCouncil,2602,1484,4664,2009-07-29 23:06:19,Washington DC,Group
179,15825020,asheen,4236,2742,11781,2008-08-12 17:15:47,Boston, MA USA,Individual
83,552957189,BarbOBrown,430,725,665,2012-04-13 17:34:00,Cleveland, OH,Individual
167,17879057,bbaue,5806,2245,7481,2008-12-04 21:05:43,Pioneer Valley of Western Mass,Individual
103,518125684,BeaperezBea,4245,793,914,2012-03-08 02:24:28,,Individual
28,374328521,BeauEngman,510,235,117,2011-09-16 03:53:09,Milwaukee, WI,Individual
147,583870567,BICEPnews,1935,1870,2985,2012-05-18 14:45:36,Boston, MA,Group
84,21786618,billmckibben,150367,732,12172,2009-02-24 19:30:06,Vermont,Individual
17,20911015,bluNiall,5447,133,7552,2009-02-15 14:00:43,London, UK,Individual
187,389591882,braveoneagency,11373,3518,4299,2011-10-12 17:42:34,San Francisco, CA,Group
85,14126939,bruno68,2730,732,10972,2008-03-11 20:07:04,Phoenix, Arizona,Individual
128,113696377,BSRnews,17606,1247,6850,2010-02-12 18:22:34,,Group
153,86378681,BWCSRNews,2128,1973,2638,2009-10-30 19:22:23,New York, NY,Group
228,108045600,caelusconsult,48327,26787,13546,2010-01-24 17:02:27,New York,Group
118,117576829,CamilleBeGreen,1336,1048,3974,2010-02-25 23:57:34,New York, NY,Individual
106,43078165,CDP,13147,919,6796,2009-05-28 09:19:14,London,Group
11,2291041129,CDP_PaulS,316,43,123,2014-01-14 11:36:52,London,Individual
169,61023114,CECPtweets,4260,2322,4670,2009-07-28 21:24:06,New York, NY,Group
204,38483313,CeresNews,26221,7433,6212,2009-05-07 18:14:57,Boston, MA,Group
25,243236419,CFigueres,53535,247,3997,2011-01-26 16:17:44,Bonn, Germany,Individual
226,14677117,changemakers,477806,26196,18200,2008-05-06 18:37:06,Washington, D.C.,Group
165,32540685,ChristineArena,3605,2211,3113,2009-04-17 19:47:35,♥ san francisco,Individual
175,88431386,christinebader,4560,2486,6144,2009-11-08 14:40:39,New York City,Individual
184,217430520,cisl_cambridge,4635,2999,6395,2010-11-19 14:22:51,Cambridge,Group
13,60308942,claychristensen,113471,85,1183,2009-07-26 13:56:02,Boston, MA,Individual
78,1954786904,CleanTrillion,799,745,1882,2013-10-11 18:18:15,Boston,Group
86,120181944,ClimateDesk,76052,738,10562,2010-03-05 18:22:03,Earth,Group
21,28657802,climateprogress,113024,189,19547,2009-04-03 21:28:57,Washington, DC,Group
180,16958346,ClimateReality,208097,2877,25575,2008-10-24 22:34:37,Washington, D.C. ,Group
161,154612193,company2keepinc,3683,2075,18278,2010-06-11 18:35:56,Global,Group
216,19940791,ConservationOrg,82234,13736,14146,2009-02-02 23:17:09,HQ - Arlington, VA,Group
43,217099473,CorpReg,1943,422,996,2010-11-18 15:47:24,,Group
87,98642441,CSE_network,933,741,1513,2009-12-22 14:12:40,,Group
116,181184960,CSR_Leaders,8275,1000,2313,2010-08-21 14:34:23,New York,Group
4,178043968,CSRbloggers,321,14,8921,2010-08-13 18:35:35,Global,Group
120,56367519,CSREuropeOrg,15747,1153,2278,2009-07-13 13:09:35,Brussels,Group
32,114609269,CSRHUB,2538,260,815,2010-02-16 01:20:38,Seattle and New York,Group
203,21933125,CSRint,15591,6958,4427,2009-02-25 23:02:41,London, UK,Group
124,18454180,csrnews,14704,1171,1019,2008-12-29 17:31:54,Berlin, Germany,Group
197,16366271,CSRwire,38159,4436,78825,2008-09-19 17:24:11,Global,Group
94,28358021,CynthiaCurtis,955,803,595,2009-04-02 15:31:57,Boston,Individual
190,15823023,DarrenBeck,3732,3756,4307,2008-08-12 14:46:09,Olathe, KS,Individual
189,18977445,DaveStangis,10182,3582,15126,2009-01-14 14:19:59,Greater Philadelphia, US,Individual
215,15061067,davidcoethica,24692,13669,16801,2008-06-09 16:02:56,Liverpool, UK,Individual
48,2484751687,davidjoneshavas,6002,435,4521,2014-05-09 00:50:54,,Individual
109,102700680,Davos,326239,924,15817,2010-01-07 14:55:58,Geneva, Switzerland,Group
186,15048198,derekmarkham,15609,3158,44804,2008-06-08 17:24:37,Silver City, New Mexico,Individual
59,267808110,DoughtyCentre,1193,530,3326,2011-03-17 15:41:12,Cranfield, Beds, UK,Group
45,767212939,DoughtyDavidG,1213,439,1763,2012-08-19 08:43:18,London+Cranfield+Sheffield,Individual
129,31476378,DougYPark,3083,1260,14739,2009-04-15 18:27:26,San Francisco,Individual
142,22737278,drvox,42293,1644,100626,2009-03-04 05:14:12,Seattle, WA,Individual
112,133526344,E_Liedel,469,977,1088,2010-04-16 01:16:25,San Francisco, CA,Individual
20,69372729,earth2017,1703,174,8331,2009-08-27 18:58:59,San Diego, CA,Group
192,18611746,elainecohen,13276,4049,16730,2009-01-04 21:13:45,israel,Group
193,20068053,EnvDefenseFund,99362,4188,7967,2009-02-04 16:48:14,New York, New York,Individual
81,2414767603,eRevalue,375,733,810,2014-03-27 18:43:07,London / NYC,Group
14,2594709402,essentialsln,45,98,62,2014-06-29 12:32:08,Yerevan, Armenia,Group
24,381661278,EthicalSource,425,212,1044,2011-09-28 18:24:22,New York, NY,Group
76,19434365,evanharvey99,738,665,7841,2009-01-24 06:42:41,Washington, DC,Group
145,14761507,FabianPattberg,11415,1801,16186,2008-05-13 17:12:40,,Individual
176,20776432,fairsnape,7650,2537,28009,2009-02-13 15:10:15,Forest of Bowland, Lancs, UK ,Individual
183,172726892,FAIRTRADE,26524,2920,4055,2010-07-30 12:57:45,Bonn, Germany,Individual
178,31469906,FairTradeUSA,70021,2722,17814,2009-04-15 18:02:03,Oakland, CA,Group
97,280716675,FastCoExist,182270,834,33616,2011-04-11 22:21:34,New York, NY,Group
31,112093795,fiercefern,956,260,2557,2010-02-07 07:25:57,Bay Area, California,Group
207,24723642,FirstPeoples,21686,8364,15215,2009-03-16 16:51:28,,Individual
90,25340442,Forum4theFuture,32709,761,11607,2009-03-19 17:13:35,Global,Group
1,2874183033,GCF_News,1785,2,72,2014-11-12 20:18:10,Songdo, Republic of Korea,Group
133,624797494,GE_PowerWater,9364,1306,2746,2012-07-02 16:16:24,Schenectady, N.Y.,Group
185,15383592,GEHealthcare,61216,3070,15082,2008-07-10 21:33:25,UK, global headquarters,Group
47,568213777,GErenewables,6777,440,1675,2012-05-01 13:37:45,Schenectady, NY,Group
77,6877872,gfriend,15682,672,28734,2007-06-17 23:05:23,Berkeley CA,Group
135,596893898,GlblCtzn,78736,1388,11896,2012-06-01 23:27:17,United States,Individual
37,38704343,globalcompact,49681,332,4577,2009-05-08 17:19:31,,Group
224,9334532,GlobalGiving,92521,21560,18007,2007-10-09 19:07:47,Washington, D.C.,Group
172,11004492,godelnik,3527,2398,5980,2007-12-09 23:22:45,Brooklyn, NY,Group
6,15942016,GreenBiz,69960,21,10710,2008-08-22 06:04:49,Oakland, CA,Group
212,15952509,greenbiztweets,44191,10513,19455,2008-08-23 01:10:55,San Francisco, CA,Group
188,3459051,Greenpeace,1335622,3476,25524,2007-04-04 20:30:34,Global,Group
221,5360012,greenpeaceusa,131361,15920,13908,2007-04-20 21:44:35,Washington, DC,Group
39,39730656,GreenRacker,656,350,453,2009-05-13 11:19:13,San Antonio Texas,Individual
75,15828276,greenwombat,18668,652,7695,2008-08-12 21:15:30,Berkeley, California,Individual
173,66687136,GRI_Secretariat,22545,2459,2025,2009-08-18 13:59:48,Amsterdam, The Netherlands,Group
206,20582958,guardianeco,309967,8262,39094,2009-02-11 10:47:37,London, UK,Group
168,116469425,GuardianSustBiz,107383,2284,39450,2010-02-22 15:26:33,London/New York,Group
127,385155982,HelleBankJorgen,1068,1218,2531,2011-10-05 00:03:52,,Individual
66,14204908,hjones_nike,9062,605,1735,2008-03-24 02:11:43,Portland, Oregon,Individual
122,45577446,HuffPostGreen,334020,1147,58043,2009-06-08 14:36:11,New York, NY,Group
42,2294627450,IKEAUSANews,3007,396,833,2014-01-16 15:40:17,USA,Group
195,1117043418,INCRnews,5541,4311,17282,2013-01-24 15:26:00,Boston, MA,Group
148,189952508,Infrangilis_ltd,946,1882,1490,2010-09-12 17:48:11,,Individual
110,85406121,Interface_NA,7190,944,4246,2009-10-26 20:27:37,LaGrange, GA,Group
156,22608014,Interface_UK,3955,2050,11610,2009-03-03 10:18:33,,Group
9,192942213,IPCC_CH,42343,32,765,2010-09-20 15:37:53,Geneva, Switzerland,Group
182,80936091,ItsBBMG,3547,2778,2684,2009-10-08 20:31:40,New York,Group
113,54548869,jacquelynottman,3570,985,8089,2009-07-07 13:42:40,New York City,Individual
115,44288504,jayhesl,1950,998,2027,2009-06-03 04:04:27,top 30 sustainability tweeter,Individual
174,19505749,JaymiHeimbuch,18803,2461,15965,2009-01-25 21:27:05,San Francisco,Individual
194,58257664,jeremyheimans,11259,4240,1982,2009-07-19 18:22:17,New York,Individual
232,15066876,JimHarris,100041,67489,24230,2008-06-09 23:05:05,Toronto, Canada,Individual
19,106384372,joconfino,12044,161,4430,2010-01-19 11:27:21,London,Individual
181,21030451,JohnFriedman,7139,2789,8997,2009-02-16 21:29:28,Northern Virginia, Paris,Individual
137,56304500,JuanVillamayor,3156,1556,6037,2009-07-13 06:14:00,Barcelona,Individual
211,31358286,Justmeans,23699,9928,42975,2009-04-15 06:44:35,Everywhere,Group
55,20797591,jyotib,905,493,3451,2009-02-13 19:24:15,London, UK,Individual
70,28645658,KaraHurst,2552,618,1132,2009-04-03 20:29:35,Seattle, WA,Individual
64,575800295,KarenLockridge,521,602,1687,2012-05-10 00:42:46,Toronto, Ontario, Canada,Individual
150,15458181,kate_sheppard,56076,1902,28293,2008-07-16 19:01:55,Washington, DC,Individual
126,21521740,kateheiny,2280,1189,1040,2009-02-21 22:11:34,Minneapolis, MN,Individual
58,301511859,KClarkeWhistler,665,520,863,2011-05-19 16:01:55,Toronto, Canada,Individual
125,851144203,KimMarotta,1924,1173,1401,2012-09-28 14:16:14,,Individual
67,18341726,KPMG_US,45250,607,6827,2008-12-23 20:35:31,United States,Group
69,52393483,kpmguk,27925,620,7189,2009-06-30 13:27:22,22 offices across the UK,Group
138,19904685,kuminaidoo,31555,1597,7862,2009-02-02 12:48:03,,Individual
46,262940385,lauraclise,2243,434,8231,2011-03-09 02:04:28,,Individual
36,41519790,laurenwylie,377,325,645,2009-05-21 03:22:43,San Francisco, CA,Individual
199,24027429,LeonKaye,8613,5176,22888,2009-03-12 20:22:41,Abu Dhabi,Individual
54,504324378,Lisa_E_French,744,490,854,2012-02-26 10:35:28,New York,Individual
131,7272252,lloydalter,9636,1282,9431,2007-07-05 16:32:56,Toronto,Individual
151,37089749,M_A_Wallace,2645,1916,2966,2009-05-02 00:31:01,Los Angeles,Individual
96,15198966,makower,33541,807,11777,2008-06-22 17:14:13,Oakland, California,Individual
80,22894243,MarcGunther,29421,718,8096,2009-03-05 07:31:04,Bethesda, MD,Individual
93,16870716,marcstoiber,1764,794,4310,2008-10-20 17:25:28,Victoria, BC,Individual
152,15349717,MarcyMurninghan,1533,1961,7411,2008-07-08 03:44:42,Watertown, Massachusetts,Individual
111,20396998,michaelmeehan,1030,960,5220,2009-02-08 22:10:58,Probably on a plane,Individual
49,18800370,Microsoft_Green,18731,452,2991,2009-01-09 13:06:38,Redmond, WA,Group
79,67675766,MikeKapalko,1125,701,1069,2009-08-21 18:12:52,Green Bay, WI,Individual
65,139729881,Mitch_Jackson,3528,614,1537,2010-05-03 14:09:28,USA,Individual
164,17231943,MorganMM,2146,2121,1153,2008-11-07 14:45:34,Boston,Individual
149,16550480,MotherNatureNet,156870,1876,23306,2008-10-01 21:12:50,Planet Earth ,Group
18,986324570,MPB_WBCSD,2700,135,323,2012-12-03 10:00:00,,Group
155,213476613,n_kelley,1886,2004,1602,2010-11-09 00:59:44,New Jersey,Individual
74,32240853,natcapsolutions,1408,638,1186,2009-04-17 01:26:28,Longmont, CO,Group
41,21308157,NatUrbanLeague,39251,398,9373,2009-02-19 15:35:40,New York,Group
229,17596622,nature_org,417125,32417,16595,2008-11-24 17:48:05,ÜT: 38.883103,-77.110875,Group
38,67034120,NBSnet,2313,355,3905,2009-08-19 15:53:38,London, Ontario, Canada,Group
30,16888773,nchockeychick,475,238,370,2008-10-21 16:32:12,Charlotte, NC,Individual
88,412673491,neilchawkins,3414,757,9976,2011-11-15 00:54:59,Michigan,Individual
44,23085995,Nestle,94962,428,3939,2009-03-06 16:45:17,Vevey, Switzerland,Group
71,26048311,nestlecsv,23310,619,2103,2009-03-23 17:40:09,Global,Group
170,1876367312,NewClimateEcon,8275,2361,2540,2013-09-17 17:57:29,Global,Group
52,121173484,nikebetterworld,41252,458,295,2010-03-08 17:15:29,,Group
158,18713552,NRDC,162304,2060,46782,2009-01-07 06:35:20,Planet Earth,Group
98,84617373,OECD_ENV,5232,841,2298,2009-10-23 15:29:37,Paris,Group
139,81867033,OLIVERBALCH,2307,1609,3104,2009-10-12 15:27:03,UK,Individual
166,16191793,patagonia,236009,2222,7455,2008-09-08 20:43:57,Ventura, California,Group
7,20057900,pauldruckman,827,27,390,2009-02-04 14:47:03,,Individual
10,207411537,PavanSukhdev,3966,40,719,2010-10-25 08:17:55,Global,Individual
123,618773580,PeggyatKC,1462,1174,7548,2012-06-26 03:36:28,Appleton, WI, USA,Individual
15,18819700,PeterGGraf,2787,112,991,2009-01-09 23:16:04,Redwood City,Individual
154,339606567,RajThamotheram,1680,1999,3057,2011-07-21 11:10:37,,Individual
225,10340482,RAN,50907,19853,11410,2007-11-17 20:47:30,San Francisco,Group
218,127881681,ReachScale,13454,14607,75923,2010-03-30 14:27:37,Boston MA,Individual
209,20245040,RealizedWorth,10654,8587,11146,2009-02-06 15:38:12,Canada, Hungary, Spain, USA,Group
230,200553940,Reportingclimat,41742,37868,9409,2010-10-09 16:10:17,UK,Group
101,288770895,RepRisk,929,868,932,2011-04-27 12:58:09,Zurich,Group
117,136572828,RI_News_Alert,4544,1042,734,2010-04-24 09:02:52,London,Group
210,14786217,RnfrstAlliance,116546,9322,19295,2008-05-15 13:56:09,New York, NY,Group
141,2876293497,RobecoSAM,710,1617,408,2014-11-14 11:57:55,Zurich, Switzerland,Group
200,27911608,RockyMtnInst,24656,5436,7410,2009-03-31 16:59:57,Snowmass and Boulder, CO,Group
33,68768975,RosabethKanter,57912,282,4892,2009-08-25 18:35:44,Boston, MA,Individual
91,1691241530,SandyFrucher,345,789,520,2013-08-22 14:33:37,New York, NY,Individual
57,163504587,sapcsr,4252,507,2697,2010-07-06 15:53:25,Worldwide,Group
73,567657016,SASB,2516,634,4096,2012-04-30 23:30:27,San Francisco, California,Group
171,44236915,sfallender,7193,2383,1557,2009-06-02 23:25:34,Tempe, Arizona,Individual
40,388335688,ShannonSchuyler,3098,387,1869,2011-10-10 15:42:32,,Individual
5,19506790,sherylsandberg,167398,17,17,2009-01-25 21:51:38,Silicon Valley,Individual
196,34113439,sierraclub,152695,4317,38422,2009-04-22 00:42:18,,Group
231,30059550,simonmainwaring,53059,50499,34155,2009-04-09 20:26:14,Los Angeles,Individual
100,1114149440,suekatus,436,881,819,2013-01-23 11:26:14,New York, New York,Individual
114,14844272,susanmcp1,27683,997,57640,2008-05-20 12:12:19,New York City/Brooklyn,Individual
177,20659742,sustainableSAP,13977,2550,4623,2009-02-12 07:07:14,Worldwide,Group
72,112237419,Sustainalytics,3835,636,1478,2010-02-07 19:01:56,Global,Group
205,17990173,SustainBrands,57794,8033,70583,2008-12-09 12:37:56,San Francisco, CA,Group
220,39077431,SustMeme,16275,15469,19979,2009-05-10 17:08:38,United Kingdom,Individual
223,18637420,TaigaCompany,48843,20920,111199,2009-01-05 17:13:57,Golden, Colorado,Individual
68,41167959,thecarbontrust,45286,610,6151,2009-05-19 17:54:33,,Group
95,24193784,TheCROA,1307,805,1870,2009-03-13 15:55:04,Philadelphia, PA,Group
27,248619513,theiirc,3775,228,1752,2011-02-07 11:29:40,,Group
162,254196455,TimJMohin,5961,2138,4409,2011-02-18 20:19:45,Austin, Texas,Individual
22,585041595,TJDiCaprio,949,195,228,2012-05-19 17:46:51,San Juan Islands, Washington,Individual
227,16593287,TreeBanker,25366,27471,5024,2008-10-04 17:28:48,Boston South Shore,Individual
202,14634720,TreeHugger,319963,6708,32617,2008-05-03 04:09:04,New York, Everywhere,Group
102,18290719,TriplePundit,33007,871,69526,2008-12-21 19:03:59,SF & Global,Group
35,262687706,TrisaDellCRO,1879,308,490,2011-03-08 15:11:07,Austin, TX,Individual
217,75742264,tveitdal,128392,13996,19427,2009-09-20 07:31:02,Arendal, Norway,Individual
201,18696996,UCSUSA,26296,6028,5196,2009-01-06 21:42:10,,Group
56,494010838,UN_CarbonMechs,4954,500,2072,2012-02-16 12:35:09,Bonn, Germany,Group
61,148517828,UN_Spokesperson,235497,547,9434,2010-05-26 22:36:33,New York, USA,Group
12,377328685,unctadwif,2704,62,1707,2011-09-21 12:04:25,Geneva,Group
144,38146999,UNEP,368658,1740,8771,2009-05-06 09:34:32,UNEPHQ, Nairobi, Kenya,Group
63,17463923,UNFCCC,174546,585,9644,2008-11-18 13:39:11,Bonn, Germany,Group
2,1949282881,UNFCCCDocuments,1385,4,219,2013-10-09 13:16:05,Bonn, Germany,Group
3,142282697,UNFCCCwebcast,7527,6,3177,2010-05-10 13:16:10,Bonn, Germany,Group
160,29409641,UNGCCritics,2747,2071,542,2009-04-07 08:14:05,Amsterdam,Group
198,109224937,Unilever,88147,4465,7519,2010-01-28 10:44:16,London and Rotterdam,Group
143,16686516,USCCFBiz4Good,5288,1667,9501,2008-10-10 18:01:44,Washington, DC,Group
157,20506074,verdantflaneur,2021,2058,3361,2009-02-10 10:54:57,Sydney, Australia,Individual
60,22128352,volansjohn,13890,538,5413,2009-02-27 10:48:55,London, UK,Individual
134,42638402,WalmartAction,18395,1379,6946,2009-05-26 14:48:28,Bentonville, Arkansas,Group
23,84401852,WalmartGiving,15345,205,2957,2009-10-22 19:26:06,Bentonville, Arkansas,Group
34,41885001,WalmartGreen,15299,299,4073,2009-05-22 19:42:46,Bentonville, Arkansas,Group
16,620213816,WalmartHealthy,9531,127,1325,2012-06-27 18:08:21,Bentonville, Arkansas,Group
140,93634334,WalmartHub,233713,1616,8784,2009-11-30 13:55:04,Bentonville, AR,Group
214,21927987,WayneVisser,22405,11844,8611,2009-02-25 22:17:43,N 51°34' 0'' / W 0°10' 0'',Individual
50,317139568,wbcsd,12224,456,2532,2011-06-14 14:04:57,Geneva ,Group
29,5120691,wef,2449226,239,15187,2007-04-18 14:00:19,Geneva, Switzerland,Group
119,355185715,WestpacSustain,1428,1070,1624,2011-08-14 23:54:35,Australia,Group
108,365123359,Women_Rio20,4814,932,6272,2011-08-30 22:12:19,,Group
89,16029780,World_Wildlife,578892,757,8818,2008-08-28 17:25:58,Washington, DC,Group
213,14559745,WorldResources,106778,10576,20090,2008-04-27 17:15:35,BRA, CHN, EUR, IND, IDN, USA,Group
99,202313343,WRIClimate,11160,871,4565,2010-10-13 19:32:47,Washington, DC,Group
26,229817142,yalmazsiddiqui,832,226,270,2010-12-23 12:04:13,Boca Raton, Florida,Individual
219,15935927,yesmagazine,47201,15044,15397,2008-08-21 19:50:30,Seattle, WA,Group
