"","user_id","num_followers","num_following"
"1","350",234624,19563
"2","3BLMedia",17651,8397
"3","adamelman",4587,1865
"4","adamwerbach",16373,790
"5","ADHumlen",4025,2068
"6","AidaGreenbury",2079,911
"7","AlexParkinsonNY",215,544
"8","algore",2764364,27
"9","alicekorngold",11535,910
"10","AmanSinghCSR",15348,2106
"11","AmyFranko",1354,1266
"12","AndreaLearned",8752,3914
"13","AndrewWinston",15980,1132
"14","AndyCWales",3649,462
"15","annalappe",23113,919
"16","AprilHCrow",528,724
"17","aroncramer",7518,456
"18","ASBCouncil",2588,1471
"19","asheen",4209,2717
"20","BarbOBrown",423,725
"21","bbaue",5796,2245
"22","BeaperezBea",4176,872
"23","BeauEngman",506,234
"24","BICEPnews",1898,1867
"25","billmckibben",149413,725
"26","bluNiall",5430,134
"27","braveoneagency",11177,3420
"28","bruno68",2696,728
"29","BSRnews",17387,1216
"30","BWCSRNews",2123,1973
"31","caelusconsult",47710,28314
"32","CamilleBeGreen",1334,1045
"33","CDP",12984,917
"34","CDP_PaulS",306,42
"35","CECPtweets",4230,2322
"36","CeresNews",25955,7402
"37","CFigueres",52544,221
"38","changemakers",476707,26195
"39","ChristineArena",3608,2212
"40","christinebader",4475,2472
"41","cisl_cambridge",4566,2993
"42","claychristensen",112413,85
"43","CleanTrillion",726,688
"44","ClimateDesk",75276,738
"45","climateprogress",111592,188
"46","ClimateReality",206154,2759
"47","company2keepinc",3701,2076
"48","ConservationOrg",81150,13703
"49","CorpReg",1939,422
"50","CSE_network",919,741
"51","CSR_Leaders",8293,1000
"52","CSRbloggers",309,14
"53","CSREuropeOrg",15578,1085
"54","CSRHUB",2517,260
"55","CSRint",15440,6959
"56","csrnews",14590,1171
"57","CSRwire",37799,4420
"58","CynthiaCurtis",952,793
"59","DarrenBeck",3717,3723
"60","DaveStangis",10102,3560
"61","davidcoethica",24606,13718
"62","davidjoneshavas",6022,442
"63","Davos",322202,925
"64","derekmarkham",15587,3158
"65","DoughtyCentre",1190,530
"66","DoughtyDavidG",1185,431
"67","DougYPark",3071,1251
"68","drvox",42118,1636
"69","E_Liedel",463,976
"70","earth2017",1685,172
"71","ecolibris",3507,2394
"72","elainecohen",13192,4050
"73","EnvDefenseFund",98626,4190
"74","eRevalue",334,698
"75","essentialsln",44,97
"76","Ethical_Corp",23568,1284
"77","EthicalSource",421,212
"78","evanharvey99",731,664
"79","FabianPattberg",11445,1803
"80","fairsnape",7598,2469
"81","FAIRTRADE",25258,2906
"82","FairTradeUSA",62850,2695
"83","FastCoExist",181304,834
"84","fiercefern",928,255
"85","FirstPeoples",21436,8364
"86","Forum4theFuture",32415,761
"87","GCF_News",1702,2
"88","GE_PowerWater",9267,1305
"89","GEHealthcare",60559,3066
"90","GErenewables",6667,435
"91","gfriend",15620,671
"92","GlblCtzn",71049,1382
"93","globalcompact",49092,332
"94","GlobalGiving",91986,21555
"95","GreenBiz",69280,21
"96","greenbiztweets",44101,10518
"97","Greenpeace",1325329,3467
"98","greenpeaceusa",130522,15879
"99","GreenRacker",648,350
"100","greenwombat",18644,650
"101","GRI_Secretariat",22284,2454
"102","guardianeco",307455,8256
"103","GuardianSustBiz",106221,2276
"104","HelleBankJorgen",1044,1187
"105","hjones_nike",9015,603
"106","HuffPostGreen",331088,1145
"107","IKEAUSANews",2847,394
"108","INCRnews",5449,4270
"109","Infrangilis_ltd",945,1871
"110","Interface_NA",7135,941
"111","Interface_UK",3899,2043
"112","IPCC_CH",41271,32
"113","ItsBBMG",3547,2778
"114","jacquelynottman",3553,985
"115","jayhesl",1945,998
"116","JaymiHeimbuch",18786,2462
"117","jeremyheimans",11142,4186
"118","JimHarris",97595,65725
"119","joconfino",11909,161
"120","JohnFriedman",7067,2767
"121","JuanVillamayor",3146,1554
"122","Justmeans",23614,9892
"123","jyotib",900,493
"124","KaraHurst",2522,616
"125","KarenLockridge",509,599
"126","kate_sheppard",55967,1899
"127","kateheiny",2245,1184
"128","KClarkeWhistler",642,518
"129","KimMarotta",1913,1172
"130","KPMG_US",44953,605
"131","kpmguk",27703,616
"132","kuminaidoo",31475,1598
"133","lauraclise",2215,431
"134","laurenwylie",375,324
"135","LeonKaye",8547,5157
"136","Lisa_E_French",737,483
"137","lloydalter",9583,1270
"138","M_A_Wallace",2628,1904
"139","makower",33461,808
"140","MarcGunther",29252,706
"141","marcstoiber",1754,792
"142","MarcyMurninghan",1524,1946
"143","michaelmeehan",1007,959
"144","Microsoft_Green",18719,451
"145","MikeKapalko",1123,698
"146","Mitch_Jackson",3505,603
"147","MorganMM",2119,2097
"148","MotherNatureNet",156029,1873
"149","MPB_WBCSD",2664,135
"150","n_kelley",1874,2002
"151","natcapsolutions",1394,638
"152","NatUrbanLeague",38673,390
"153","nature_org",413397,32415
"154","NBSnet",2297,346
"155","nchockeychick",470,238
"156","neilchawkins",3381,755
"157","Nestle",92442,428
"158","nestlecsv",23245,619
"159","NewClimateEcon",8048,2349
"160","nikebetterworld",40992,459
"161","NRDC",161347,2061
"162","OECD_ENV",5159,841
"163","OLIVERBALCH",2308,1606
"164","patagonia",233265,2218
"165","pauldruckman",821,27
"166","PavanSukhdev",3944,40
"167","PeggyatKC",1447,1158
"168","PeterGGraf",2777,111
"169","RajThamotheram",1669,1999
"170","RAN",50579,26673
"171","ReachScale",13381,14550
"172","RealizedWorth",10628,8588
"173","Reportingclimat",41070,36018
"174","RepRisk",914,867
"175","RI_News_Alert",4465,1043
"176","RnfrstAlliance",115402,9312
"177","RobecoSAM",677,1616
"178","RockyMtnInst",24505,5436
"179","RosabethKanter",57664,280
"180","SandyFrucher",341,788
"181","sapcsr",4229,499
"182","SASB",2471,631
"183","sfallender",7152,2364
"184","ShannonSchuyler",3054,381
"185","sherylsandberg",162771,17
"186","sierraclub",151372,4314
"187","simonmainwaring",53017,50521
"188","suekatus",403,859
"189","susanmcp1",27492,997
"190","sustainableSAP",13947,2543
"191","Sustainalytics",3780,629
"192","SustainBrands",57004,8007
"193","SustMeme",16139,15311
"194","TaigaCompany",48247,20352
"195","thecarbontrust",44924,607
"196","TheCROA",1293,805
"197","theiirc",3729,228
"198","TimJMohin",5883,2100
"199","TJDiCaprio",938,195
"200","TreeBanker",25330,27408
"201","TreeHugger",319219,6711
"202","triplepundit",32532,868
"203","TrisaDellCRO",1868,308
"204","tveitdal",127525,13940
"205","UCSUSA",26046,6028
"206","UN_CarbonMechs",4898,500
"207","UN_Spokesperson",232395,538
"208","unctadwif",2670,60
"209","UNEP",364336,1735
"210","UNFCCC",172266,547
"211","UNFCCCDocuments",1378,4
"212","UNFCCCwebcast",7506,6
"213","UNGCCritics",2746,2071
"214","Unilever",86801,4464
"215","USCCFBiz4Good",5239,1661
"216","verdantflaneur",1992,2050
"217","volansjohn",13800,532
"218","WalmartAction",18254,1379
"219","WalmartGiving",15251,205
"220","WalmartGreen",15254,299
"221","WalmartHealthy",9530,127
"222","WalmartHub",233175,1608
"223","WayneVisser",21671,11258
"224","wbcsd",12044,456
"225","wef",2431078,237
"226","WestpacSustain",1413,1066
"227","Women_Rio20",4770,923
"228","World_Wildlife",573717,759
"229","WorldResources",105896,10561
"230","WRIClimate",10981,844
"231","yalmazsiddiqui",826,226
"232","yesmagazine",46968,15017
