350,117
3BLMedia,749
adamelman,36
adamwerbach,4
ADHumlen,11
AidaGreenbury,71
AlexParkinsonNY,3
algore,6
alicekorngold,120
AmanSinghCSR,39
AmyFranko,10
AndreaLearned,70
AndrewWinston,20
AndyCWales,15
annalappe,24
AprilHCrow,1
aroncramer,18
ASBCouncil,30
asheen,48
BarbOBrown,14
bbaue,4
BeaperezBea,9
BICEPnews,19
billmckibben,75
bluNiall,39
braveoneagency,8
bruno68,161
BSRnews,59
BWCSRNews,2
caelusconsult,78
CamilleBeGreen,6
CDP,116
CECPtweets,8
CeresNews,49
CFigueres,19
changemakers,25
ChristineArena,7
christinebader,28
cisl_cambridge,41
CleanTrillion,64
ClimateDesk,68
climateprogress,124
ClimateReality,294
ConservationOrg,169
CorpReg,4
CSE_network,35
CSRbloggers,251
CSREuropeOrg,7
CSRHUB,2
CSRint,6
csrnews,6
CSRwire,288
DarrenBeck,8
DaveStangis,62
davidcoethica,96
davidjoneshavas,209
Davos,547
derekmarkham,55
DoughtyCentre,5
DoughtyDavidG,70
DougYPark,38
drvox,362
earth2017,61
ecolibris,19
elainecohen,17
EnvDefenseFund,119
eRevalue,47
essentialsln,2
Ethical_Corp,98
EthicalSource,4
evanharvey99,30
fairsnape,101
FAIRTRADE,50
FairTradeUSA,52
FastCoExist,224
fiercefern,24
FirstPeoples,85
Forum4theFuture,40
GCF_News,5
GE_PowerWater,22
GEHealthcare,82
GErenewables,6
gfriend,43
GlblCtzn,230
globalcompact,21
GlobalGiving,206
GreenBiz,39
greenbiztweets,49
Greenpeace,170
greenpeaceusa,153
greenwombat,18
GRI_Secretariat,13
guardianeco,162
GuardianSustBiz,174
HelleBankJorgen,21
hjones_nike,64
HuffPostGreen,86
IKEAUSANews,40
INCRnews,118
Infrangilis_ltd,3
Interface_NA,15
Interface_UK,70
ItsBBMG,2
jacquelynottman,4
jayhesl,2
JaymiHeimbuch,30
jeremyheimans,34
JimHarris,33
joconfino,15
JohnFriedman,26
JuanVillamayor,14
Justmeans,575
jyotib,11
KaraHurst,3
KarenLockridge,54
kate_sheppard,40
kateheiny,1
KClarkeWhistler,24
KPMG_US,98
kpmguk,22
kuminaidoo,4
lauraclise,31
laurenwylie,1
LeonKaye,45
Lisa_E_French,1
lloydalter,40
M_A_Wallace,4
makower,75
MarcGunther,56
marcstoiber,67
MarcyMurninghan,61
michaelmeehan,15
Microsoft_Green,10
Mitch_Jackson,6
MorganMM,4
MotherNatureNet,137
MPB_WBCSD,7
n_kelley,4
natcapsolutions,2
NatUrbanLeague,56
nature_org,69
NBSnet,26
neilchawkins,105
Nestle,2
nestlecsv,2
NewClimateEcon,69
nikebetterworld,5
NRDC,135
OECD_ENV,25
OLIVERBALCH,8
patagonia,39
pauldruckman,4
PavanSukhdev,7
PeggyatKC,210
PeterGGraf,4
RajThamotheram,7
RAN,44
ReachScale,182
RealizedWorth,10
Reportingclimat,211
RepRisk,3
RI_News_Alert,7
RnfrstAlliance,198
RobecoSAM,1
RockyMtnInst,53
RosabethKanter,12
SandyFrucher,4
sapcsr,36
SASB,20
sfallender,8
ShannonSchuyler,19
sierraclub,343
simonmainwaring,35
suekatus,29
susanmcp1,183
sustainableSAP,8
Sustainalytics,11
SustainBrands,513
SustMeme,86
TaigaCompany,368
thecarbontrust,34
TheCROA,22
theiirc,2
TimJMohin,29
TreeBanker,20
TreeHugger,42
triplepundit,722
TrisaDellCRO,7
tveitdal,53
UCSUSA,90
UN_CarbonMechs,25
UN_Spokesperson,83
unctadwif,28
UNEP,45
UNFCCC,62
Unilever,24
USCCFBiz4Good,9
verdantflaneur,7
volansjohn,51
WalmartAction,1
WalmartGreen,1
WalmartHub,35
WayneVisser,72
wbcsd,115
wef,348
WestpacSustain,10
Women_Rio20,241
World_Wildlife,40
WorldResources,48
WRIClimate,84
yesmagazine,18
